{
	"timeOffset": "0",
	"2authKey": "[91,73,87,145,42,207,246,89,180,119,123,159,234,229,27,133,213,196,117,57,147,25,1,159,168,171,71,17,100,67,56,36,70,13,132,85,249,164,87,70,34,86,227,127,2,79,57,181,16,120,90,179,142,58,60,115,54,66,223,35,107,151,115,102,17,23,159,125,185,147,228,246,162,228,65,239,160,31,213,64,201,226,25,121,152,245,171,118,124,234,220,120,115,182,48,220,155,205,224,87,71,69,250,207,102,205,197,126,101,128,214,196,172,138,63,37,181,204,186,34,131,71,220,206,40,171,211,220,183,0,161,150,22,250,175,111,36,6,239,42,175,251,247,5,74,88,158,246,15,17,194,61,185,36,117,144,198,183,14,108,110,71,53,61,192,108,60,215,53,241,25,82,145,80,1,34,59,78,222,156,178,57,118,226,89,219,78,167,93,37,48,172,36,225,203,235,97,224,33,253,42,200,149,186,5,126,65,193,58,135,23,124,211,247,160,0,63,218,29,197,167,144,43,92,85,141,104,146,146,184,185,245,56,95,52,15,165,104,184,152,125,162,37,196,165,45,108,197,19,142,106,116,44,138,164,209]",
	"2serverSalt": "[222,231,166,116,248,192,105,73]",
	"defaultDcId": "5",
	"5authKey": "[42,231,57,141,85,73,249,121,149,118,209,71,48,230,161,138,202,145,87,127,124,14,211,154,133,185,18,134,26,1,35,107,174,4,53,57,222,80,200,60,240,145,149,76,14,212,130,51,113,232,92,125,206,231,253,214,154,2,2,34,124,162,51,123,184,9,175,165,237,106,25,155,186,5,77,181,62,234,47,56,120,17,187,117,134,105,91,112,193,244,95,140,137,207,130,90,76,72,105,203,155,77,119,61,103,39,10,206,59,198,24,75,121,31,157,23,130,102,5,240,134,2,221,5,142,246,61,167,158,50,242,162,194,172,177,143,104,145,95,8,140,52,181,123,101,74,230,91,89,17,8,199,167,40,14,126,235,25,150,42,63,185,215,82,31,86,104,172,217,61,40,110,180,52,96,229,246,157,32,217,5,12,52,207,97,78,245,132,45,28,172,162,70,191,139,70,186,237,20,19,41,56,201,63,88,7,27,97,32,17,28,41,153,156,100,16,100,50,144,249,28,24,239,119,112,86,247,87,148,15,12,11,140,221,215,134,15,190,139,205,20,140,176,221,72,223,93,68,79,224,90,195,221,35,243,162]",
	"5serverSalt": "[120,100,87,200,50,44,91,49]",
	"4authKey": "[147,179,68,71,216,209,146,187,54,61,46,159,29,190,70,242,246,109,140,184,110,189,141,164,130,248,59,132,179,106,112,225,224,26,216,208,193,183,238,254,150,35,174,12,50,132,212,144,223,156,223,62,179,240,120,3,46,217,115,81,69,169,93,181,140,232,153,206,76,192,216,239,9,87,148,49,172,245,90,212,228,70,0,97,243,104,35,1,29,192,157,52,128,51,26,199,174,197,191,86,10,52,119,217,184,13,46,203,69,128,210,197,88,152,102,185,220,182,130,58,168,234,27,239,176,63,113,104,47,220,81,142,159,242,145,40,242,38,84,158,87,253,6,162,54,101,250,50,172,55,54,125,72,60,193,120,20,109,112,235,96,216,146,114,239,230,112,112,41,164,13,198,245,51,1,195,225,54,75,141,10,207,51,136,28,219,35,1,230,209,12,199,253,148,241,121,150,58,78,255,27,160,246,81,29,216,219,129,220,57,1,99,130,134,197,188,137,129,34,68,145,244,101,93,74,238,12,59,78,8,23,167,17,56,215,37,248,204,173,73,113,133,168,93,170,131,56,188,7,96,255,164,185,39,230,97]",
	"4serverSalt": "[10,228,111,113,161,74,173,182]",
	"1authKey": "[105,31,178,173,182,156,204,95,49,74,152,73,7,171,15,62,183,112,27,80,111,223,76,145,194,186,1,42,129,19,217,0,75,225,145,127,19,77,220,7,140,36,224,41,206,212,16,68,181,188,215,198,53,53,6,199,125,247,53,100,239,5,96,174,166,211,14,146,4,197,202,207,209,244,119,59,103,234,72,192,76,41,120,19,182,35,139,132,75,210,214,226,19,78,161,221,160,144,86,239,73,183,66,0,174,121,117,108,53,180,164,68,29,227,167,246,96,151,188,144,16,183,24,92,240,77,133,186,49,193,178,75,122,59,27,58,199,82,170,175,190,97,89,18,83,40,253,204,75,47,54,54,82,51,164,51,178,38,79,251,44,235,242,179,30,201,230,134,13,132,61,182,9,75,119,189,96,15,3,221,87,12,82,235,184,130,210,25,27,154,189,87,7,29,31,17,225,225,58,161,197,249,101,85,2,94,167,199,237,143,78,75,91,59,105,159,56,122,214,4,86,173,150,232,103,99,126,51,204,143,255,13,233,101,135,19,244,27,130,190,155,245,84,171,204,41,127,123,242,149,152,159,241,109,245,5]",
	"1serverSalt": "[181,98,84,149,193,104,109,195]",
	"3authKey": "[185,1,0,240,218,33,217,72,161,108,158,41,65,219,224,155,71,8,226,83,143,239,168,72,160,198,185,37,13,38,48,132,180,157,202,158,181,210,41,83,196,188,88,96,114,144,227,158,254,133,226,179,47,82,225,82,26,223,78,244,61,218,202,39,146,190,179,109,129,28,177,180,107,35,96,99,168,63,146,67,138,37,113,169,245,27,169,20,50,14,226,47,198,175,194,0,233,94,175,102,7,172,223,27,65,61,100,127,19,21,100,246,208,32,194,97,89,179,100,226,254,28,24,129,161,188,24,100,227,86,134,148,45,215,252,217,104,124,75,125,189,254,227,13,0,152,13,250,199,30,119,207,33,218,213,146,101,0,115,233,112,147,179,49,158,42,232,131,83,120,65,240,252,150,117,34,44,137,14,70,158,28,222,176,228,17,229,231,184,5,161,48,242,181,221,110,46,132,21,144,72,50,179,202,216,236,197,160,110,40,51,222,243,20,119,80,112,191,151,56,34,13,57,44,78,134,133,231,67,76,100,126,100,30,67,76,196,154,90,213,150,222,187,37,14,45,118,0,246,118,46,75,159,17,172,108]",
	"3serverSalt": "[243,167,32,175,172,156,189,35]"
}