{
    "error_code": "SPC-200",
    "message": "success",
    "status": "Success",
    "soft_ref_id": "SPRCV2404080553423535I3B4717SZ17",
    "vehicleDetails": {
        "Validation": null,
        "Service": null,
        "UniqueTransID": "A5B2DB3B080420240553428250",
        "Data": {
            "id": "b829a532-a4a6-417c-a453-f8d4f8b98416",
            "env": 2,
            "response_code": "101",
            "response_msg": "Success",
            "transaction_status": 0,
            "result": {
                "state_cd": "KA",
                "rc_regn_no": "KA13B8962",
                "rc_regn_dt": "17-Mar-2016",
                "rc_chasi_no": "MAT600175GTB03628",
                "rc_eng_no": "475IDI03BTYP09187",
                "rc_vh_class_desc": "Motor Cab(LPV)",
                "rc_maker_desc": "TATA MOTORS LTD",
                "rc_maker_model": "INDICA V2 LX NA E III",
                "rc_manu_month_yr": "02/2016",
                "rc_gvw": "1500",
                "rc_cubic_cap": "1405.0",
                "rc_seat_cap": "5",
                "rc_owner_name": "NAGESH",
                "rc_permanent_address": "RAILWAY COLONY SHAHABAD R , TQ CHITTAPUR,KALABURAGI WF 1/9/2023, Gulbarga -585228",
                "rc_fit_upto": "19-Sep-2024",
                "rc_pasia_model_code": "ta1235",
                "rc_insurance_comp": "Shriram General Insurance Co. Ltd.",
                "rc_insurance_upto": "06-Aug-2024",
                "rc_registered_at": "KALABURAGI RTO, Karnataka",
                "rc_blacklist_status": "NA",
                "rc_status": "ACTIVE",
                "rc_vehicle_type": "CV",
                "bancs_model_code": "1446126",
                "bancs_make_code": "1446",
                "bancs_Subtype_code": "1446126015",
                "bancs_Fuel_Type": "Diesel(D)",
                "bancs_Body_Type": "SALOON",
                "bancs_Vehicle_class": "27",
                "bancs_Vehicle_Segment": null,
                "rc_rto_code": null
            },
            "request_timestamp": "0001-01-01T00:00:00",
            "response_timestamp": "0001-01-01T00:00:00",
            "task_id": "71b2f327-f311-48db-b097-61d5a1fdd915"
        },
        "StatusCode": "0",
        "ErrorMessage": ""
    },
    "additionalInfo": null
}