{
    "code": 200,
    "result": {
        "data": {
            "regNo": "KA13B8962",
            "vehicleClass": "Motor Cab(LPV)",
            "chassis": "MAT600175GTB03628",
            "engine": "475IDI03BTYP09187",
            "vehicleManufacturerName": "TATA MOTORS LTD",
            "model": "INDICA V2 LX NA  E III",
            "vehicleColour": "PLANTINUMS",
            "type": "DIESEL",
            "normsType": "BHARAT STAGE III",
            "bodyType": "SALOON",
            "ownerCount": "4",
            "owner": "NAGESH",
            "ownerFatherName": "BHIMASHANKAR",
            "mobileNumber": null,
            "status": "ACTIVE",
            "statusAsOn": "26-Nov-2023",
            "regAuthority": "KALABURAGI  RTO, Karnataka",
            "regDate": "17-Mar-2016",
            "vehicleManufacturingMonthYear": "2/2016",
            "rcExpiryDate": "19-Sep-2030",
            "vehicleTaxUpto": "29-Feb-2030",
            "vehicleInsuranceCompanyName": "Shriram General Insurance  Co. Ltd.",
            "vehicleInsuranceUpto": "06-Aug-2030",
            "vehicleInsurancePolicyNumber": "418005/31/24/010651",
            "rcFinancer": "On Cash",
            "presentAddress": "RAILWAY COLONY SHAHABAD R , TQ CHITTAPUR,KALABURAGI WF 1/9/2023, Gulbarga -585228",
            "permanentAddress": "RAILWAY COLONY SHAHABAD R , TQ CHITTAPUR,KALABURAGI WF 1/9/2023, Gulbarga -585228",
            "vehicleCubicCapacity": "1405.0",
            "grossVehicleWeight": "1500",
            "unladenWeight": "1100",
            "vehicleCategory": "LPV",
            "rcStandardCap": "0",
            "vehicleCylindersNo": "4",
            "vehicleSeatCapacity": "5",
            "vehicleSleeperCapacity": "0",
            "vehicleStandingCapacity": "0",
            "wheelbase": "2400",
            "vehicleNumber": "KA13B8962",
            "puccNumber": "NA",
            "puccUpto": "NA",
            "blacklistStatus": "NA",
            "blacklistDetails": [
                "NA"
            ],
            "permitIssueDate": "08-Sep-2033",
            "permitNumber": "KA2023-CC-2344H",
            "permitType": "Contract Carriage Permit[MOTOR CAB PERMIT]",
            "permitValidFrom": "08-Sep-2023",
            "permitValidUpto": "07-Sep-2028",
            "nonUseStatus": "N",
            "nonUseFrom": null,
            "nonUseTo": null,
            "nationalPermitNumber": null,
            "nationalPermitUpto": null,
            "nationalPermitIssuedBy": null,
            "isCommercial": true,
            "nocDetails": "NA",
            "dbResult": false,
            "partialData": false,
            "mmvResponse": null,
            "financed": false
        }
    }
}