{
    "isProduction": true,
    "telegram": {
        "rideDetails": -1001576084800,
        "devMessages":  -510470456,
        "internalUser":  -535891612
    },
    "vendorCharges": {
        "vehicleAddOrRefresh": 200,
        "vehicleRefresh": 50,
        "vehicleGenericRefresh" : 30,
        "driverAddOrRefresh": 100,
        "driverRefresh": 50,
        "driverGenericRefresh" : 30
    },
    "permitCharges": {
        "sedan" : {
            "KA": 736,
            "TN": 0,
            "AP": 550,
            "TS": 550,
            "KL": 585,
            "PY": 486
        },
        "innova": {
            "KA": 1256,
            "TN": 0,
            "AP": 2386,
            "TS": 2386,
            "KL": 986,
            "PY": 880
        }
    },
    "paymentGateway": "razorpay",
    "whatsapp": {
        "template": {
            "phone_verification": "phone_verification"
        },
        "phoneNoId": "504581639404150",
        "phoneNoAccountId": "498168536714554",
        "token": ""
    },
    "elasticSearchConfig": {
        "protocol": "http",
        "host": "ec2-18-61-216-82.ap-south-2.compute.amazonaws.com:9200",
        "credentials": {
            "username": "_fuck_off_",
            "password": "_fuck_off_"
        }
    },
    "razorpay": {
        "keyId": "__From_Wrangler_secrets__",
        "keySecret": "__From_Wrangler_secrets__"
    },
    "ippopay": {
        "baseUrl": "https://api.ippopay.com/apitest/v1/pg",
        "keyId": "pk_test_22zVE32IcU67",
        "keySecret": "sk_test_huagZuVYPMgvmisTsn3iqkvWQYgdAL1J4YcRkuHg"
    },
    "sqs": {
        "region": "ap-south-1",
        "credentials": {
            "accessKeyId": "test",
            "secretAccessKey": "test"
        }
    },
    "s3": {
        "region": "ap-south-2",
        "credentials": {
            "accessKeyId": "__From_Wrangler_secrets__",
            "secretAccessKey": "__From_Wrangler_secrets__" 
        },
        "buckets": {
            "cabVendors": "cabvendors"
        }
    },
    "dynamodb": {
        "region": "ap-south-1",
        "endpoint": null,
        "credentials": {
            "accessKeyId": "__From_Wrangler_secrets__",
            "secretAccessKey": "__From_Wrangler_secrets__"
        },
        "tables": {
            "cabVendors": "cab-vendors",
            "rides": "rides",
            "walletLedger": "wallet-book-keeping",
            "ridesStatusIndex": "booking-status-index",
            "genericTable": "generic-table"
        }
    },
    "firebase": {
        "projectId":	"gogocab-driver-app",
        "clientEmail": "firebase-adminsdk-k6l5r@gogocab-driver-app.iam.gserviceaccount.com",
        "privateKey": "rofl"
    },
    "invicibleOcean": {
        "clientId": "4ea35877e59eebaa326057c958b73819:0b53a8b40c4054a78d4524aa201eb8ca",
        "secretKey": "MKAHtFXY7DYPW2xHVNLSlqf9ldcnEuJyhycrhDuJ7BZTVUO7Tt6Ip5eS6o65lhrPr"
    },
    "admins": [
        "uvsankar94@gmail.com",
        "velu1995@gmail.com",
        "gogocabmail@gmail.com"
    ]
}