{
  "type": "service_account",
  "project_id": "gogocab-driver-app",
  "private_key_id": "f205381e4dd1912a351de6c250088c5e4d9ee106",
  "private_key": "-----BEGIN PRIVATE KEY-----\nMIIEvAIBADANBgkqhkiG9w0BAQEFAASCBKYwggSiAgEAAoIBAQC9Gkq4F3KFwkwv\nGAAxHJ8jLm76caqei3atAjwrEaH6sTZcveJpFiuEjGGcq58T7txqYinSwKd/TUZN\nlGyin6k363VORAgZnth94/z9k01kr97BXCAsIOXIoPqtGo/P+Y9tYn52k6W5cKEW\nheVKnqSYNbEeGWwr4MmOPNslGaOzlwnFZaOqBTDa4lJ3wQVoOlvl93eCrjJ8aFul\n+07dN2Yaw9QytCQOCk+UKB+X5dTFTRPRQnzPnCpGnUFG7GOtGN6wi0P+cP2J5ARn\n/w5Ig7TRGHzx1TeCG8zA7CSMMq5mZ2nRba/dJ538U8UGpigb29vV+1zoizrPuvuS\n1K/bktHvAgMBAAECggEAD0JjeSUObSC91do381gxHaOnk1BzL8WaCmGKlwC4DQSz\nzRpwsYFdrZ2uWsTpwOM4QhVkKC+HoWW/U8KAXN18lP7/dK6LGmL10Uk02jl161Da\nk5VqVMuqy/Yn6qptpGvc8qGAcI0YuGgQRHY1h6a/9wOOJIGkqvD1Er2lnJuYpbfz\nSIB7SzuOaWPk4hHvsKe7lUD/jhtSNj0ADTW7S5tzn+ZDjQCUnpJ6y/DR4lpWt9lX\npthECdqKrV0VKMT44vMljR38Fc0lW6ycZ3cDd12HLcGGc8R3V00ehVyaJ5h3Xx7K\n++/RxwyHQ/ahPaDrP/gQ0PqkRIHs3w2KtptsM6Uk8QKBgQDgb+qcx7Pd5MwhjSL5\nh4Jt/Te6Woe+m4v4/woDKbHXnPToA6AlCRnNUmrxG/jT19xaHN5H/piUCROsIUpc\n71RmpsH0JHivpsf3vtyouPjrB8Hp5M+OrrgSGozrF437cywTGe1EyIvtbnJ08bXt\nQb3giZLBmkk87HNUktSFB4m0zQKBgQDXske0gfvQd00rTYrtXyEtAS0ty/pd4kEj\nF5ah5jKVg1AU+pQLJJVvkgSLD4A1WpFqSZGqu29MM0leVk4zW5NNDwR8TNmTsLV1\ns7coRwSOVmwxZembUk/fAotRfr1+v21tFaoVC/oM5H8aUTVGaFVwOHix9oiPzL2V\nzF84cmtBqwKBgGp0Cxb0Dhdoh34+gGFU6gObgIxOlmZNRxYCelBHvYfkdbF6zsHi\nUC+4MOtN9jcdAvJnEPObCenlaERTwf7UsfbCj+pqRigidmTHTchlfAOWuV5kXiJy\nMvK7Ty3PDVRAK56fxI/Eg8JJidZ4M29mqFZRSp+zu5s/F/D8d/rlOWbdAoGAcXA2\nm+1cpReJQ0Pl088bIJMk0pgbVXLftPf75auuYMmNvWrHn1CfMu1FbGk7kVPPdGm6\nrWMkNpwmcvHK8OGxh25leoXkS/M8i+l3YzxuXfl/rz8c6+4PSYcKBFM2j8lXYG5r\nY+RHnq4xVoLtFNlcTce1WksBKTeRYY35ajNqyz8CgYAd0KONFTyso//aHcWSXn+E\ndqqtSNsdLtkhIIVhLkveokI60/f6kn6b424yaT9ZgDEo/EQcnnmJ0Z+LpHrcKO2i\nIJGF9R8Czy63cdqOXDsQRqC8krlIyvk4ZFn6Bv+oyvTmNmgATZOeUzZDWdnmvhxO\noS9F/XRfA312GW2qC/5hVQ==\n-----END PRIVATE KEY-----\n",
  "client_email": "firebase-adminsdk-k6l5r@gogocab-driver-app.iam.gserviceaccount.com",
  "client_id": "113734331777819464001",
  "auth_uri": "https://accounts.google.com/o/oauth2/auth",
  "token_uri": "https://oauth2.googleapis.com/token",
  "auth_provider_x509_cert_url": "https://www.googleapis.com/oauth2/v1/certs",
  "client_x509_cert_url": "https://www.googleapis.com/robot/v1/metadata/x509/firebase-adminsdk-k6l5r%40gogocab-driver-app.iam.gserviceaccount.com"
}
