<svg width="27" height="27" viewBox="0 0 27 27" fill="none" xmlns="http://www.w3.org/2000/svg">
<path fill-rule="evenodd" clip-rule="evenodd" d="M20.2506 1.40625C18.1545 1.40625 16.1554 2.65908 15.3163 4.6451C14.5311 6.50382 14.9681 8.09758 15.8305 9.41716C16.5212 10.4742 17.5293 11.4174 18.3925 12.225C18.5545 12.3766 18.7114 12.5233 18.86 12.665L18.8619 12.6668C19.2371 13.0226 19.7352 13.2188 20.2506 13.2188C20.7659 13.2188 21.2641 13.0226 21.6394 12.6668C21.7805 12.533 21.9287 12.3948 22.0816 12.2523C22.9534 11.4396 23.9746 10.4877 24.6724 9.41744C25.5336 8.09667 25.9691 6.50155 25.1848 4.6451C24.3458 2.65908 22.3467 1.40625 20.2506 1.40625ZM20.2412 4.78125C19.1588 4.78125 18.2813 5.66269 18.2813 6.75C18.2813 7.83731 19.1588 8.71875 20.2412 8.71875H20.2588C21.3413 8.71875 22.2188 7.83731 22.2188 6.75C22.2188 5.66269 21.3413 4.78125 20.2588 4.78125H20.2412Z" fill="#FE4066"/>
<path d="M1.40625 21.375C1.40625 19.045 3.29505 17.1562 5.625 17.1562C7.95495 17.1562 9.84375 19.045 9.84375 21.375C9.84375 23.705 7.95495 25.5938 5.625 25.5938C3.29505 25.5938 1.40625 23.705 1.40625 21.375Z" fill="#433E3E"/>
<path fill-rule="evenodd" clip-rule="evenodd" d="M5.625 11.25C5.625 8.60826 8.0605 6.75 10.6875 6.75H12.375C12.9963 6.75 13.5 7.25368 13.5 7.875C13.5 8.49632 12.9963 9 12.375 9H10.6875C8.96525 9 7.875 10.1638 7.875 11.25C7.875 12.3362 8.96525 13.5 10.6875 13.5H14.0625C16.6895 13.5 19.125 15.3583 19.125 18C19.125 20.6417 16.6895 22.5 14.0625 22.5H12.375C11.7537 22.5 11.25 21.9963 11.25 21.375C11.25 20.7537 11.7537 20.25 12.375 20.25H14.0625C15.7848 20.25 16.875 19.0862 16.875 18C16.875 16.9138 15.7848 15.75 14.0625 15.75H10.6875C8.0605 15.75 5.625 13.8917 5.625 11.25Z" fill="#433E3E"/>
</svg>
