<svg width="29" height="30" viewBox="0 0 29 30" fill="none" xmlns="http://www.w3.org/2000/svg">
<path d="M29 15.0376C29 6.73684 22.504 0 14.5 0C6.496 0 0 6.73684 0 15.0376C0 22.3158 4.988 28.3759 11.6 29.7744V19.5489H8.7V15.0376H11.6V11.2782C11.6 8.37594 13.8765 6.01504 16.675 6.01504H20.3V10.5263H17.4C16.6025 10.5263 15.95 11.203 15.95 12.0301V15.0376H20.3V19.5489H15.95V30C23.2725 29.2481 29 22.8421 29 15.0376Z" fill="black"/>
</svg>
