<svg width="15" height="15" viewBox="0 0 15 15" fill="none" xmlns="http://www.w3.org/2000/svg">
<path d="M7.4563 10.2379C7.05054 10.2379 6.64478 10.0814 6.33756 9.7742L2.5582 5.99484C2.3901 5.82674 2.3901 5.54851 2.5582 5.38041C2.7263 5.21231 3.00454 5.21231 3.17264 5.38041L6.952 9.15976C7.23023 9.438 7.68236 9.438 7.9606 9.15976L11.74 5.38041C11.9081 5.21231 12.1863 5.21231 12.3544 5.38041C12.5225 5.54851 12.5225 5.82674 12.3544 5.99484L8.57503 9.7742C8.26781 10.0814 7.86206 10.2379 7.4563 10.2379Z" fill="black"/>
</svg>
