<svg width="239" height="8" viewBox="0 0 239 8" fill="none" xmlns="http://www.w3.org/2000/svg">
<line x1="3" y1="3.5" x2="239" y2="3.50002" stroke="#CACACA" stroke-dasharray="2 2"/>
<circle cx="3.5" cy="3.5" r="3.5" fill="#18A160"/>
<circle cx="235.5" cy="4.5" r="3.5" fill="#FA4065"/>
</svg>
