<svg width="12" height="12" viewBox="0 0 12 12" fill="none" xmlns="http://www.w3.org/2000/svg">
<g clip-path="url(#clip0_42_16369)">
<path d="M3 6.125L5.25 8L8.25 4.25M5.625 0.875L0.375 3.875V4.415C0.374961 5.98802 0.887355 7.51824 1.83463 8.77405C2.7819 10.0299 4.11249 10.9429 5.625 11.375C7.13751 10.9429 8.4681 10.0299 9.41537 8.77405C10.3626 7.51824 10.875 5.98802 10.875 4.415V3.875L5.625 0.875Z" stroke="#345D44" stroke-width="0.75" stroke-linejoin="round"/>
</g>
<defs>
<clipPath id="clip0_42_16369">
<rect width="11.25" height="11.25" fill="white" transform="translate(0 0.5)"/>
</clipPath>
</defs>
</svg>
