<svg width="66" height="66" viewBox="0 0 66 66" fill="none" xmlns="http://www.w3.org/2000/svg">
<rect width="66" height="66" rx="12.75" fill="#FF4268" fill-opacity="0.27"/>
<path d="M16 49.75L23.7885 16M32.875 16V21.1923M32.875 30.2789V35.4712M32.875 44.5577V49.75M49.75 49.75L41.9616 16" stroke="#FE4469" stroke-width="3.18174" stroke-linecap="round" stroke-linejoin="round"/>
</svg>
