<svg width="10" height="6" viewBox="0 0 10 6" fill="none" xmlns="http://www.w3.org/2000/svg">
<path fill-rule="evenodd" clip-rule="evenodd" d="M9.66663 1.25008L4.99996 5.91675L0.333293 1.25008L1.49996 0.0834134L4.99996 3.58341L8.49996 0.083414L9.66663 1.25008Z" fill="#929292"/>
</svg>
