<svg width="437" height="181" viewBox="0 0 437 181" fill="none" xmlns="http://www.w3.org/2000/svg">
<path d="M70.2 95.7C66.7333 97.5 62.6667 98.9667 58 100.1C53.4 101.233 48.3667 101.8 42.9 101.8C37.2333 101.8 32 100.9 27.2 99.1C22.4667 97.3 18.3667 94.7667 14.9 91.5C11.5 88.2333 8.83333 84.3333 6.9 79.8C4.96667 75.2 4 70.1 4 64.5C4 58.8333 4.96667 53.7 6.9 49.1C8.9 44.5 11.6333 40.6 15.1 37.4C18.5667 34.1333 22.6333 31.6333 27.3 29.9C31.9667 28.1667 37 27.3 42.4 27.3C48 27.3 53.2 28.1667 58 29.9C62.8 31.5667 66.7 33.8333 69.7 36.7L58.9 49C57.2333 47.0667 55.0333 45.5 52.3 44.3C49.5667 43.0333 46.4667 42.4 43 42.4C40 42.4 37.2333 42.9667 34.7 44.1C32.1667 45.1667 29.9667 46.7 28.1 48.7C26.2333 50.6333 24.7667 52.9667 23.7 55.7C22.7 58.3667 22.2 61.3 22.2 64.5C22.2 67.7667 22.6667 70.7667 23.6 73.5C24.5333 76.2333 25.9 78.6 27.7 80.6C29.5667 82.5333 31.8333 84.0667 34.5 85.2C37.2333 86.2667 40.3333 86.8 43.8 86.8C45.8 86.8 47.7 86.6667 49.5 86.4C51.3 86.0667 52.9667 85.5667 54.5 84.9V72H41V58.2H70.2V95.7ZM136.055 74.9C136.055 78.9667 135.322 82.6667 133.855 86C132.389 89.2667 130.389 92.0667 127.855 94.4C125.322 96.6667 122.389 98.4333 119.055 99.7C115.722 100.967 112.155 101.6 108.355 101.6C104.622 101.6 101.055 100.967 97.6555 99.7C94.3221 98.4333 91.3888 96.6667 88.8555 94.4C86.3888 92.0667 84.4221 89.2667 82.9555 86C81.4888 82.6667 80.7555 78.9667 80.7555 74.9C80.7555 70.8333 81.4888 67.1667 82.9555 63.9C84.4221 60.6333 86.3888 57.8667 88.8555 55.6C91.3888 53.3333 94.3221 51.6 97.6555 50.4C101.055 49.2 104.622 48.6 108.355 48.6C112.155 48.6 115.722 49.2 119.055 50.4C122.389 51.6 125.322 53.3333 127.855 55.6C130.389 57.8667 132.389 60.6333 133.855 63.9C135.322 67.1667 136.055 70.8333 136.055 74.9ZM120.255 74.9C120.255 73.3 119.989 71.7333 119.455 70.2C118.922 68.6667 118.155 67.3333 117.155 66.2C116.155 65 114.922 64.0333 113.455 63.3C111.989 62.5667 110.289 62.2 108.355 62.2C106.422 62.2 104.722 62.5667 103.255 63.3C101.789 64.0333 100.555 65 99.5555 66.2C98.6221 67.3333 97.8888 68.6667 97.3555 70.2C96.8888 71.7333 96.6555 73.3 96.6555 74.9C96.6555 76.5 96.8888 78.0667 97.3555 79.6C97.8888 81.1333 98.6555 82.5333 99.6555 83.8C100.655 85 101.889 85.9667 103.355 86.7C104.822 87.4333 106.522 87.8 108.455 87.8C110.389 87.8 112.089 87.4333 113.555 86.7C115.022 85.9667 116.255 85 117.255 83.8C118.255 82.5333 118.989 81.1333 119.455 79.6C119.989 78.0667 120.255 76.5 120.255 74.9ZM210.239 95.7C206.772 97.5 202.706 98.9667 198.039 100.1C193.439 101.233 188.406 101.8 182.939 101.8C177.272 101.8 172.039 100.9 167.239 99.1C162.506 97.3 158.406 94.7667 154.939 91.5C151.539 88.2333 148.872 84.3333 146.939 79.8C145.006 75.2 144.039 70.1 144.039 64.5C144.039 58.8333 145.006 53.7 146.939 49.1C148.939 44.5 151.672 40.6 155.139 37.4C158.606 34.1333 162.672 31.6333 167.339 29.9C172.006 28.1667 177.039 27.3 182.439 27.3C188.039 27.3 193.239 28.1667 198.039 29.9C202.839 31.5667 206.739 33.8333 209.739 36.7L198.939 49C197.272 47.0667 195.072 45.5 192.339 44.3C189.606 43.0333 186.506 42.4 183.039 42.4C180.039 42.4 177.272 42.9667 174.739 44.1C172.206 45.1667 170.006 46.7 168.139 48.7C166.272 50.6333 164.806 52.9667 163.739 55.7C162.739 58.3667 162.239 61.3 162.239 64.5C162.239 67.7667 162.706 70.7667 163.639 73.5C164.572 76.2333 165.939 78.6 167.739 80.6C169.606 82.5333 171.872 84.0667 174.539 85.2C177.272 86.2667 180.372 86.8 183.839 86.8C185.839 86.8 187.739 86.6667 189.539 86.4C191.339 86.0667 193.006 85.5667 194.539 84.9V72H181.039V58.2H210.239V95.7ZM276.095 74.9C276.095 78.9667 275.361 82.6667 273.895 86C272.428 89.2667 270.428 92.0667 267.895 94.4C265.361 96.6667 262.428 98.4333 259.095 99.7C255.761 100.967 252.195 101.6 248.395 101.6C244.661 101.6 241.095 100.967 237.695 99.7C234.361 98.4333 231.428 96.6667 228.895 94.4C226.428 92.0667 224.461 89.2667 222.995 86C221.528 82.6667 220.795 78.9667 220.795 74.9C220.795 70.8333 221.528 67.1667 222.995 63.9C224.461 60.6333 226.428 57.8667 228.895 55.6C231.428 53.3333 234.361 51.6 237.695 50.4C241.095 49.2 244.661 48.6 248.395 48.6C252.195 48.6 255.761 49.2 259.095 50.4C262.428 51.6 265.361 53.3333 267.895 55.6C270.428 57.8667 272.428 60.6333 273.895 63.9C275.361 67.1667 276.095 70.8333 276.095 74.9ZM260.295 74.9C260.295 73.3 260.028 71.7333 259.495 70.2C258.961 68.6667 258.195 67.3333 257.195 66.2C256.195 65 254.961 64.0333 253.495 63.3C252.028 62.5667 250.328 62.2 248.395 62.2C246.461 62.2 244.761 62.5667 243.295 63.3C241.828 64.0333 240.595 65 239.595 66.2C238.661 67.3333 237.928 68.6667 237.395 70.2C236.928 71.7333 236.695 73.3 236.695 74.9C236.695 76.5 236.928 78.0667 237.395 79.6C237.928 81.1333 238.695 82.5333 239.695 83.8C240.695 85 241.928 85.9667 243.395 86.7C244.861 87.4333 246.561 87.8 248.495 87.8C250.428 87.8 252.128 87.4333 253.595 86.7C255.061 85.9667 256.295 85 257.295 83.8C258.295 82.5333 259.028 81.1333 259.495 79.6C260.028 78.0667 260.295 76.5 260.295 74.9Z" fill="#FE4066"/>
<path d="M209.978 142.802C209.474 142.154 208.79 141.632 207.926 141.236C207.062 140.84 206.18 140.642 205.28 140.642C204.344 140.642 203.498 140.84 202.742 141.236C201.986 141.596 201.338 142.1 200.798 142.748C200.258 143.36 199.826 144.08 199.502 144.908C199.214 145.736 199.07 146.618 199.07 147.554C199.07 148.49 199.214 149.372 199.502 150.2C199.79 151.028 200.204 151.766 200.744 152.414C201.32 153.026 201.986 153.512 202.742 153.872C203.534 154.232 204.416 154.412 205.388 154.412C206.288 154.412 207.17 154.25 208.034 153.926C208.934 153.566 209.654 153.062 210.194 152.414L215.108 158.408C213.992 159.488 212.552 160.334 210.788 160.946C209.024 161.558 207.152 161.864 205.172 161.864C203.048 161.864 201.068 161.54 199.232 160.892C197.396 160.244 195.794 159.308 194.426 158.084C193.094 156.824 192.032 155.312 191.24 153.548C190.484 151.784 190.106 149.786 190.106 147.554C190.106 145.358 190.484 143.378 191.24 141.614C192.032 139.85 193.094 138.356 194.426 137.132C195.794 135.872 197.396 134.918 199.232 134.27C201.068 133.586 203.03 133.244 205.118 133.244C206.09 133.244 207.044 133.334 207.98 133.514C208.952 133.694 209.87 133.946 210.734 134.27C211.634 134.558 212.444 134.936 213.164 135.404C213.92 135.836 214.568 136.322 215.108 136.862L209.978 142.802ZM234.49 149.282H233.356C232.384 149.282 231.394 149.336 230.386 149.444C229.414 149.516 228.532 149.678 227.74 149.93C226.984 150.182 226.354 150.56 225.85 151.064C225.346 151.532 225.094 152.162 225.094 152.954C225.094 153.458 225.202 153.89 225.418 154.25C225.67 154.61 225.976 154.898 226.336 155.114C226.696 155.33 227.11 155.492 227.578 155.6C228.046 155.672 228.496 155.708 228.928 155.708C230.728 155.708 232.096 155.222 233.032 154.25C234.004 153.242 234.49 151.892 234.49 150.2V149.282ZM218.236 137.78C219.82 136.268 221.656 135.134 223.744 134.378C225.868 133.622 228.028 133.244 230.224 133.244C232.492 133.244 234.4 133.532 235.948 134.108C237.532 134.648 238.81 135.512 239.782 136.7C240.754 137.852 241.456 139.328 241.888 141.128C242.356 142.892 242.59 144.998 242.59 147.446V161H234.49V158.138H234.328C233.644 159.254 232.6 160.118 231.196 160.73C229.828 161.342 228.334 161.648 226.714 161.648C225.634 161.648 224.518 161.504 223.366 161.216C222.214 160.928 221.152 160.46 220.18 159.812C219.244 159.164 218.47 158.3 217.858 157.22C217.246 156.14 216.94 154.808 216.94 153.224C216.94 151.28 217.462 149.714 218.506 148.526C219.586 147.338 220.954 146.42 222.61 145.772C224.302 145.124 226.174 144.692 228.226 144.476C230.278 144.26 232.276 144.152 234.22 144.152V143.72C234.22 142.388 233.752 141.416 232.816 140.804C231.88 140.156 230.728 139.832 229.36 139.832C228.1 139.832 226.876 140.102 225.688 140.642C224.536 141.182 223.546 141.83 222.718 142.586L218.236 137.78ZM279.17 147.446C279.17 149.318 278.882 151.118 278.306 152.846C277.73 154.574 276.884 156.104 275.768 157.436C274.688 158.732 273.356 159.776 271.772 160.568C270.188 161.36 268.388 161.756 266.372 161.756C264.572 161.756 262.862 161.396 261.242 160.676C259.658 159.92 258.434 158.858 257.57 157.49H257.462V161H249.308V120.176H258.164V136.97H258.272C259.028 136.07 260.09 135.242 261.458 134.486C262.826 133.73 264.5 133.352 266.48 133.352C268.424 133.352 270.17 133.73 271.718 134.486C273.302 135.242 274.634 136.268 275.714 137.564C276.83 138.86 277.676 140.372 278.252 142.1C278.864 143.792 279.17 145.574 279.17 147.446ZM270.638 147.446C270.638 146.582 270.494 145.736 270.206 144.908C269.954 144.08 269.558 143.36 269.018 142.748C268.478 142.1 267.812 141.578 267.02 141.182C266.228 140.786 265.31 140.588 264.266 140.588C263.258 140.588 262.358 140.786 261.566 141.182C260.774 141.578 260.09 142.1 259.514 142.748C258.974 143.396 258.542 144.134 258.218 144.962C257.93 145.79 257.786 146.636 257.786 147.5C257.786 148.364 257.93 149.21 258.218 150.038C258.542 150.866 258.974 151.604 259.514 152.252C260.09 152.9 260.774 153.422 261.566 153.818C262.358 154.214 263.258 154.412 264.266 154.412C265.31 154.412 266.228 154.214 267.02 153.818C267.812 153.422 268.478 152.9 269.018 152.252C269.558 151.604 269.954 150.866 270.206 150.038C270.494 149.174 270.638 148.31 270.638 147.446ZM300.618 142.046C299.898 141.362 299.052 140.786 298.08 140.318C297.108 139.85 296.082 139.616 295.002 139.616C294.174 139.616 293.4 139.778 292.68 140.102C291.996 140.426 291.654 140.984 291.654 141.776C291.654 142.532 292.032 143.072 292.788 143.396C293.58 143.72 294.84 144.08 296.568 144.476C297.576 144.692 298.584 144.998 299.592 145.394C300.636 145.79 301.572 146.312 302.4 146.96C303.228 147.608 303.894 148.4 304.398 149.336C304.902 150.272 305.154 151.388 305.154 152.684C305.154 154.376 304.812 155.816 304.128 157.004C303.444 158.156 302.544 159.092 301.428 159.812C300.348 160.532 299.124 161.054 297.756 161.378C296.388 161.702 295.02 161.864 293.652 161.864C291.456 161.864 289.296 161.522 287.172 160.838C285.084 160.118 283.338 159.074 281.934 157.706L286.902 152.468C287.694 153.332 288.666 154.052 289.818 154.628C290.97 155.204 292.194 155.492 293.49 155.492C294.21 155.492 294.912 155.33 295.596 155.006C296.316 154.646 296.676 154.034 296.676 153.17C296.676 152.342 296.244 151.73 295.38 151.334C294.516 150.938 293.166 150.524 291.33 150.092C290.394 149.876 289.458 149.588 288.522 149.228C287.586 148.868 286.74 148.382 285.984 147.77C285.264 147.158 284.67 146.402 284.202 145.502C283.734 144.602 283.5 143.522 283.5 142.262C283.5 140.642 283.842 139.274 284.526 138.158C285.21 137.006 286.092 136.07 287.172 135.35C288.252 134.63 289.44 134.108 290.736 133.784C292.068 133.424 293.382 133.244 294.678 133.244C296.694 133.244 298.656 133.568 300.564 134.216C302.508 134.828 304.146 135.764 305.478 137.024L300.618 142.046ZM320.365 156.248C320.365 157.76 319.825 159.02 318.745 160.028C317.701 161.036 316.441 161.54 314.965 161.54C314.209 161.54 313.489 161.396 312.805 161.108C312.157 160.856 311.581 160.496 311.077 160.028C310.573 159.56 310.177 159.02 309.889 158.408C309.601 157.76 309.457 157.058 309.457 156.302C309.457 155.582 309.601 154.898 309.889 154.25C310.177 153.602 310.573 153.044 311.077 152.576C311.581 152.072 312.157 151.676 312.805 151.388C313.489 151.1 314.209 150.956 314.965 150.956C316.441 150.956 317.701 151.46 318.745 152.468C319.825 153.476 320.365 154.736 320.365 156.248ZM344.978 142.802C344.474 142.154 343.79 141.632 342.926 141.236C342.062 140.84 341.18 140.642 340.28 140.642C339.344 140.642 338.498 140.84 337.742 141.236C336.986 141.596 336.338 142.1 335.798 142.748C335.258 143.36 334.826 144.08 334.502 144.908C334.214 145.736 334.07 146.618 334.07 147.554C334.07 148.49 334.214 149.372 334.502 150.2C334.79 151.028 335.204 151.766 335.744 152.414C336.32 153.026 336.986 153.512 337.742 153.872C338.534 154.232 339.416 154.412 340.388 154.412C341.288 154.412 342.17 154.25 343.034 153.926C343.934 153.566 344.654 153.062 345.194 152.414L350.108 158.408C348.992 159.488 347.552 160.334 345.788 160.946C344.024 161.558 342.152 161.864 340.172 161.864C338.048 161.864 336.068 161.54 334.232 160.892C332.396 160.244 330.794 159.308 329.426 158.084C328.094 156.824 327.032 155.312 326.24 153.548C325.484 151.784 325.106 149.786 325.106 147.554C325.106 145.358 325.484 143.378 326.24 141.614C327.032 139.85 328.094 138.356 329.426 137.132C330.794 135.872 332.396 134.918 334.232 134.27C336.068 133.586 338.03 133.244 340.118 133.244C341.09 133.244 342.044 133.334 342.98 133.514C343.952 133.694 344.87 133.946 345.734 134.27C346.634 134.558 347.444 134.936 348.164 135.404C348.92 135.836 349.568 136.322 350.108 136.862L344.978 142.802ZM382.126 147.446C382.126 149.642 381.73 151.64 380.938 153.44C380.146 155.204 379.066 156.716 377.698 157.976C376.33 159.2 374.746 160.154 372.946 160.838C371.146 161.522 369.22 161.864 367.168 161.864C365.152 161.864 363.226 161.522 361.39 160.838C359.59 160.154 358.006 159.2 356.638 157.976C355.306 156.716 354.244 155.204 353.452 153.44C352.66 151.64 352.264 149.642 352.264 147.446C352.264 145.25 352.66 143.27 353.452 141.506C354.244 139.742 355.306 138.248 356.638 137.024C358.006 135.8 359.59 134.864 361.39 134.216C363.226 133.568 365.152 133.244 367.168 133.244C369.22 133.244 371.146 133.568 372.946 134.216C374.746 134.864 376.33 135.8 377.698 137.024C379.066 138.248 380.146 139.742 380.938 141.506C381.73 143.27 382.126 145.25 382.126 147.446ZM373.594 147.446C373.594 146.582 373.45 145.736 373.162 144.908C372.874 144.08 372.46 143.36 371.92 142.748C371.38 142.1 370.714 141.578 369.922 141.182C369.13 140.786 368.212 140.588 367.168 140.588C366.124 140.588 365.206 140.786 364.414 141.182C363.622 141.578 362.956 142.1 362.416 142.748C361.912 143.36 361.516 144.08 361.228 144.908C360.976 145.736 360.85 146.582 360.85 147.446C360.85 148.31 360.976 149.156 361.228 149.984C361.516 150.812 361.93 151.568 362.47 152.252C363.01 152.9 363.676 153.422 364.468 153.818C365.26 154.214 366.178 154.412 367.222 154.412C368.266 154.412 369.184 154.214 369.976 153.818C370.768 153.422 371.434 152.9 371.974 152.252C372.514 151.568 372.91 150.812 373.162 149.984C373.45 149.156 373.594 148.31 373.594 147.446ZM422.077 161V146.312C422.077 145.556 422.023 144.836 421.915 144.152C421.807 143.432 421.609 142.82 421.321 142.316C421.033 141.812 420.637 141.416 420.133 141.128C419.665 140.804 419.035 140.642 418.243 140.642C417.487 140.642 416.821 140.804 416.245 141.128C415.705 141.452 415.237 141.884 414.841 142.424C414.481 142.964 414.211 143.594 414.031 144.314C413.851 144.998 413.761 145.718 413.761 146.474V161H404.905V145.664C404.905 144.116 404.599 142.892 403.987 141.992C403.375 141.092 402.403 140.642 401.071 140.642C399.667 140.642 398.569 141.2 397.777 142.316C397.021 143.432 396.643 144.8 396.643 146.42V161H387.733V134.108H396.319V137.834H396.427C396.751 137.258 397.147 136.7 397.615 136.16C398.119 135.62 398.713 135.152 399.397 134.756C400.081 134.324 400.837 133.982 401.665 133.73C402.529 133.478 403.465 133.352 404.473 133.352C406.417 133.352 408.055 133.748 409.387 134.54C410.755 135.332 411.817 136.466 412.573 137.942C413.473 136.538 414.625 135.422 416.029 134.594C417.433 133.766 419.143 133.352 421.159 133.352C422.995 133.352 424.525 133.694 425.749 134.378C427.009 135.026 428.017 135.89 428.773 136.97C429.529 138.014 430.069 139.202 430.393 140.534C430.753 141.83 430.933 143.108 430.933 144.368V161H422.077Z" fill="#FE4066"/>
<path d="M0 138.838H26.4706V139.5H0V138.838Z" fill="url(#paint0_linear_203_270)"/>
<path d="M0 142.809H26.4706V143.471H0V142.809Z" fill="url(#paint1_linear_203_270)"/>
<path d="M0 144.794H26.4706V145.456H0V144.794Z" fill="url(#paint2_linear_203_270)"/>
<path d="M0 146.779H26.4706V147.441H0V146.779Z" fill="url(#paint3_linear_203_270)"/>
<path d="M0 148.765H26.4706V149.426H0V148.765Z" fill="url(#paint4_linear_203_270)"/>
<path d="M0 150.75H26.4706V151.412H0V150.75Z" fill="url(#paint5_linear_203_270)"/>
<path d="M0 152.735H26.4706V153.397H0V152.735Z" fill="url(#paint6_linear_203_270)"/>
<path d="M0 154.721H26.4706V155.382H0V154.721Z" fill="url(#paint7_linear_203_270)"/>
<path d="M0 156.706H26.4706V157.368H0V156.706Z" fill="url(#paint8_linear_203_270)"/>
<path d="M0 158.691H26.4706V159.353H0V158.691Z" fill="url(#paint9_linear_203_270)"/>
<path d="M0 160.676H26.4706V161.338H0V160.676Z" fill="url(#paint10_linear_203_270)"/>
<path d="M0 140.823H26.4706V141.485H0V140.823Z" fill="url(#paint11_linear_203_270)"/>
<path d="M95.6101 117C96.5355 117.004 97.4609 116.999 98.3863 117.001C98.3931 118.573 98.3759 120.146 98.3966 121.717C101.468 121.771 104.546 121.658 107.611 121.928C110.773 122.182 113.908 122.852 116.872 123.988C117.971 124.449 119 125.057 120.026 125.66C122.001 126.85 123.926 128.122 125.845 129.398C127.63 130.577 129.39 131.795 131.223 132.9C132.096 133.389 132.976 133.869 133.839 134.375C134.995 135.039 136.155 135.7 137.369 136.252C138.391 136.709 139.461 137.104 140.581 137.228C143.265 137.407 145.946 137.667 148.608 138.065C149.761 138.231 150.912 138.41 152.065 138.585C153.599 138.798 155.101 139.184 156.609 139.533C158.325 139.944 160.038 140.369 161.747 140.813C164.323 141.523 166.896 142.251 169.45 143.038C170.759 143.451 172.07 143.865 173.343 144.381C173.793 144.578 174.274 144.756 174.625 145.116C175.158 145.637 175.366 146.387 175.474 147.104C171.225 147.107 166.975 147.106 162.726 147.106C162.41 147.104 162.056 147.2 161.883 147.486C161.704 147.79 161.696 148.155 161.684 148.498C161.691 149.038 161.68 149.577 161.689 150.116C161.711 150.441 161.733 150.799 161.951 151.06C162.138 151.283 162.444 151.346 162.723 151.345C166.985 151.344 171.247 151.343 175.51 151.344C175.783 151.348 176.088 151.329 176.303 151.137C176.511 150.948 176.538 150.65 176.564 150.387C177.153 151.17 177.834 151.875 178.457 152.63C178.704 152.92 178.967 153.117 179.241 153.38C176.11 153.383 173.051 153.374 169.921 153.38C169.656 153.39 169.388 153.357 169.128 153.402C168.974 153.499 169.028 153.706 169.026 153.857C169.05 154.095 168.982 154.338 169.044 154.57C169.083 154.697 169.388 154.001 169.5 154C172.763 153.999 176.726 154.004 179.99 154C180.204 153.991 179.365 155.218 179.5 155C179.575 156.999 179.92 158.537 179.993 160.535C179.995 160.687 180.009 160.841 179.99 160.993C179.963 161.122 179.818 161.154 179.706 161.153C176.657 161.163 173.606 161.142 170.557 161.168C167.101 161.168 163.644 161.168 160.188 161.168C158.821 161.189 157.453 161.181 156.085 161.181C156.131 159.366 155.772 157.536 154.981 155.898C153.68 153.139 151.22 150.955 148.324 149.995C146.211 149.286 143.89 149.22 141.736 149.787C139.861 150.285 138.125 151.28 136.734 152.63C135.232 154.088 134.139 155.968 133.634 158.001C133.361 159.047 133.262 160.132 133.289 161.211C130.144 161.211 126.998 161.209 123.854 161.21C120.783 161.237 117.71 161.22 114.639 161.225C113.104 161.233 111.568 161.209 110.033 161.24C106.789 161.239 103.545 161.24 100.3 161.24C99.0341 161.228 97.7684 161.26 96.5021 161.255C93.2388 161.253 89.9749 161.256 86.7116 161.254C83.5651 161.284 80.4181 161.263 77.2712 161.268C75.8103 161.276 74.3488 161.254 72.8878 161.283C69.5894 161.282 66.291 161.283 62.992 161.283C63.0588 159.674 62.7841 158.052 62.1835 156.557C61.55 154.969 60.5504 153.527 59.287 152.375C57.8911 151.112 56.1861 150.192 54.3589 149.735C51.9703 149.149 49.3906 149.339 47.1275 150.312C45.1777 151.138 43.4727 152.524 42.2582 154.258C41.0581 155.963 40.3389 158.003 40.2173 160.085C40.1897 160.493 40.1961 160.902 40.2012 161.31C37.489 161.305 34.7773 161.336 32.0651 161.327C29.0125 161.333 25.96 161.314 22.908 161.342C22.5637 161.341 22.1877 161.45 21.8675 161.281C21.6371 161.109 21.6918 160.784 21.6959 160.534C21.7034 158.947 21.6964 157.361 21.6987 155.775C25.3835 155.783 29.0689 155.775 32.7532 155.775C32.9841 155.786 33.2138 155.647 33.2928 155.428C33.4091 155.11 33.3918 154.764 33.3982 154.431C33.3878 154.084 33.4137 153.719 33.2727 153.393C33.1753 153.173 32.9277 153.069 32.6974 153.086C29.0351 153.084 25.3727 153.082 21.7103 153.084C21.7132 152.593 21.7121 152.101 21.7115 151.611C21.7 150.958 21.5065 150.303 21.6389 149.653C21.6781 149.42 21.8543 149.228 22.0788 149.161C22.6466 148.98 23.2484 149.096 23.8311 149.073C24.6695 149.019 25.5086 148.948 26.3487 148.934C27.41 148.946 28.4713 148.937 29.5326 148.938C30.7217 148.981 31.9125 148.949 33.1022 148.961C33.2508 148.546 33.2704 148.102 33.3153 147.667C33.4235 146.468 33.3135 145.249 32.9536 144.098C32.649 143.049 32.1302 142.082 31.6136 141.126C31.0908 140.194 30.4924 139.251 29.5855 138.649C28.8393 138.157 27.9075 138.097 27.0397 138.146C26.8295 138.161 26.6113 138.152 26.4149 138.239C26.4593 137.88 26.484 137.512 26.6153 137.171C26.659 137.059 26.7351 136.926 26.8738 136.926C27.3932 136.888 27.9132 136.836 28.4355 136.852C31.3147 136.852 34.194 136.853 37.0737 136.852C37.7268 136.855 38.3809 136.837 39.0334 136.885C41.1058 137.018 43.1708 137.256 45.2461 137.351C45.237 137.364 45.2185 137.391 45.2093 137.405C45.3509 137.643 45.4863 137.886 45.5818 138.146C45.6729 138.37 45.7264 138.628 45.9216 138.79C46.1485 138.983 46.4657 138.968 46.7456 138.979C47.9981 138.976 49.2954 138.913 50.4523 138.382C50.8652 138.214 51.1715 137.877 51.5078 137.597C53.0781 136.173 54.5961 134.692 56.1198 133.219C57.9722 131.407 59.8265 129.598 61.6484 127.755C62.0527 127.316 62.5012 126.916 62.8652 126.442C63.2084 126.023 63.5959 125.643 63.9696 125.252C64.724 124.782 65.5273 124.398 66.3409 124.041C67.4085 123.565 68.4618 123.048 69.5737 122.682C70.8527 122.26 72.2053 122.148 73.5424 122.076C77.0096 121.912 80.4802 121.851 83.9496 121.799C87.832 121.756 91.7143 121.724 95.5978 121.74C95.6222 120.161 95.5991 118.58 95.6101 117ZM99.2673 124.586C98.506 124.609 97.743 124.576 96.9835 124.625C97.0082 128.149 97.0042 131.674 97.0353 135.198C97.0404 135.831 97.0186 136.465 97.0565 137.097C97.0514 137.866 97.0542 138.636 97.0588 139.405C97.9088 139.441 98.7599 139.411 99.611 139.421C100.916 139.434 102.222 139.403 103.527 139.438C105.177 139.436 106.827 139.435 108.477 139.436C110.107 139.477 111.739 139.449 113.37 139.458C116.308 139.474 119.246 139.457 122.184 139.479C123.758 139.492 125.333 139.459 126.906 139.501C127.732 139.499 128.557 139.497 129.383 139.501C129.388 139.131 129.203 138.797 129.035 138.48C128.693 137.879 128.276 137.326 127.847 136.785C127.162 135.941 126.446 135.121 125.683 134.347C123.296 132.133 120.784 130.028 117.998 128.33C116.094 127.175 114.058 126.217 111.91 125.615C110.818 125.307 109.698 125.114 108.586 124.901C107.014 124.609 105.415 124.449 103.817 124.519C102.3 124.535 100.784 124.569 99.2673 124.586ZM83.0279 124.64C80.9675 124.643 78.8881 124.664 76.8641 125.092C76.1615 125.234 75.4849 125.51 74.8918 125.913C74.1784 126.395 73.6014 127.053 73.1096 127.754C72.5528 128.544 72.1128 129.407 71.6314 130.243C70.8339 131.692 69.9759 133.106 69.0798 134.495C68.5506 135.398 68.0462 136.314 67.5619 137.242C67.2077 137.95 66.8277 138.655 66.5875 139.412C68.0934 139.411 69.5992 139.404 71.105 139.409C72.9667 139.371 74.8295 139.424 76.6907 139.376C79.2641 139.395 81.8364 139.359 84.4093 139.365C85.9462 139.371 87.4826 139.342 89.019 139.353C90.6331 139.354 92.2465 139.335 93.8606 139.347C93.8727 134.463 93.8474 129.579 93.8687 124.696C92.1556 124.643 90.4401 124.659 88.727 124.62C87.2684 124.627 85.8086 124.565 84.3506 124.624C83.9095 124.623 83.4678 124.61 83.0279 124.64ZM99.3318 140.85C99.0974 140.867 98.8481 140.961 98.7318 141.179C98.5285 141.551 98.5659 141.99 98.5619 142.399C98.567 142.704 98.5982 143.031 98.7755 143.289C98.9223 143.497 99.1924 143.566 99.4354 143.559C101.45 143.553 103.465 143.556 105.48 143.556C105.733 143.559 106.007 143.456 106.146 143.233C106.31 142.968 106.352 142.645 106.355 142.338C106.358 141.927 106.371 141.472 106.116 141.123C105.93 140.877 105.596 140.839 105.311 140.838C103.318 140.85 101.324 140.826 99.3318 140.85ZM69.229 140.93C69.0263 140.986 68.8748 141.161 68.8196 141.36C68.7153 141.735 68.7476 142.129 68.747 142.515C68.7683 142.808 68.7799 143.132 68.9693 143.375C69.1352 143.58 69.4202 143.606 69.6655 143.606C71.6804 143.599 73.6947 143.612 75.7096 143.618C75.9503 143.627 76.2042 143.527 76.3384 143.32C76.5244 143.031 76.5474 142.673 76.5434 142.339C76.5376 141.973 76.5727 141.583 76.3995 141.246C76.3068 141.056 76.1 140.947 75.8962 140.929C75.0106 140.878 74.1238 140.904 73.2375 140.898C72.0657 140.903 70.8944 140.893 69.7231 140.888C69.5578 140.888 69.3879 140.879 69.229 140.93ZM109.608 149.111C109.607 150.422 109.626 151.734 109.603 153.044C108.272 153.033 106.94 153.042 105.608 153.039C105.605 151.73 105.608 150.422 105.608 149.114C104.278 149.111 102.948 149.111 101.618 149.115C101.614 150.445 101.616 151.776 101.616 153.106C102.95 153.106 104.285 153.108 105.619 153.106C105.614 154.413 105.626 155.719 105.615 157.025C106.948 157.031 108.283 157.039 109.616 157.021C109.601 155.716 109.618 154.411 109.611 153.106C110.941 153.106 112.273 153.106 113.604 153.106C113.604 154.411 113.604 155.716 113.604 157.022C114.932 157.024 116.261 157.017 117.59 157.026C117.608 155.715 117.598 154.403 117.594 153.091C118.934 153.131 120.277 153.096 121.618 153.109C121.621 151.777 121.615 150.445 121.617 149.113C120.287 149.115 118.956 149.111 117.626 149.115C117.631 150.418 117.615 151.722 117.632 153.025C116.289 153.028 114.947 153.027 113.604 153.028C113.596 151.722 113.619 150.414 113.592 149.108C112.264 149.119 110.936 149.114 109.608 149.111ZM77.9593 149.115C77.9582 150.447 77.9593 151.779 77.957 153.111C79.2884 153.106 80.6198 153.105 81.9511 153.107C81.9511 151.775 81.9448 150.444 81.9511 149.113C80.6203 149.116 79.2895 149.117 77.9593 149.115ZM70.0121 149.175C70.0121 150.504 70.0115 151.834 70.0121 153.164C71.3342 153.164 72.6564 153.163 73.978 153.164C73.9855 154.483 73.9624 155.803 73.9832 157.123C75.3099 157.117 76.6366 157.115 77.9634 157.127C77.9824 155.798 77.9543 154.467 77.9755 153.138C76.6523 153.097 75.3244 153.149 73.9999 153.117C74.0097 151.802 73.9987 150.487 74.0045 149.171C72.6737 149.171 71.3429 149.172 70.0121 149.175ZM85.7994 153.155C84.4911 153.152 83.1828 153.157 81.8745 153.156C81.8808 154.492 81.8612 155.829 81.8843 157.165C83.2168 157.15 84.5498 157.158 85.8829 157.159C85.887 155.828 85.8824 154.497 85.8875 153.165C87.193 153.166 88.4984 153.168 89.8038 153.162C89.7883 151.83 89.8194 150.497 89.7866 149.166C88.4644 149.176 87.1417 149.177 85.8196 149.166C85.7948 150.495 85.8242 151.826 85.7994 153.155ZM93.6707 149.172C93.6684 150.506 93.6742 151.839 93.6719 153.172C95.0009 153.154 96.3305 153.165 97.6596 153.166C97.663 151.834 97.6631 150.502 97.6624 149.17C96.3317 149.171 95.0015 149.171 93.6707 149.172ZM121.425 153.159C121.414 154.492 121.428 155.825 121.423 157.158C122.754 157.16 124.085 157.158 125.416 157.155C125.416 155.822 125.422 154.49 125.414 153.157C124.084 153.159 122.754 153.148 121.425 153.159ZM89.7803 157.189C91.1128 157.199 92.4453 157.196 93.7778 157.191C93.7737 155.868 93.7697 154.545 93.7783 153.222C93.4391 153.181 93.0965 153.213 92.7562 153.204C91.7675 153.201 90.7787 153.21 89.7906 153.195C89.7687 154.525 89.7952 155.858 89.7803 157.189ZM97.6106 153.225C97.6222 154.555 97.6071 155.886 97.617 157.216C98.9454 157.208 100.274 157.219 101.604 157.215C101.612 155.884 101.598 154.553 101.613 153.223C101.061 153.195 100.507 153.221 99.9543 153.211C99.1729 153.217 98.3908 153.198 97.6106 153.225Z" fill="#FFE500" stroke="#FFE500"/>
<path d="M99.267 124.586C100.784 124.569 102.3 124.535 103.817 124.519C105.415 124.449 107.014 124.609 108.586 124.901C109.698 125.114 110.818 125.307 111.91 125.615C114.058 126.218 116.094 127.175 117.998 128.33C120.784 130.028 123.296 132.133 125.683 134.347C126.446 135.121 127.162 135.941 127.847 136.785C128.276 137.326 128.693 137.88 129.035 138.48C129.203 138.797 129.388 139.131 129.383 139.501C128.557 139.497 127.732 139.499 126.906 139.501C125.333 139.459 123.758 139.492 122.184 139.479C119.246 139.457 116.308 139.474 113.37 139.458C111.739 139.449 110.107 139.477 108.477 139.436C106.827 139.435 105.177 139.436 103.527 139.438C102.222 139.403 100.916 139.434 99.6109 139.421C98.7598 139.411 97.9087 139.441 97.0588 139.405C97.0542 138.636 97.0513 137.866 97.0565 137.097C97.0184 136.465 97.0403 135.831 97.0352 135.198C97.0041 131.674 97.0082 128.149 96.9834 124.625C97.7428 124.576 98.5058 124.609 99.267 124.586Z" fill="#2E2E2E" stroke="#2E2E2E"/>
<path d="M83.0282 124.64C83.4681 124.61 83.9098 124.623 84.3509 124.624C85.8089 124.565 87.2687 124.627 88.7274 124.62C90.4405 124.659 92.156 124.643 93.8691 124.696C93.8477 129.579 93.8731 134.463 93.861 139.347C92.2469 139.335 90.6334 139.354 89.0193 139.353C87.483 139.342 85.9466 139.37 84.4097 139.365C81.8368 139.359 79.2645 139.395 76.691 139.376C74.8299 139.424 72.9671 139.37 71.1054 139.409C69.5995 139.404 68.0937 139.411 66.5879 139.412C66.828 138.655 67.208 137.95 67.5622 137.242C68.0465 136.314 68.551 135.398 69.0802 134.495C69.9762 133.106 70.8342 131.692 71.6318 130.243C72.1132 129.407 72.5531 128.544 73.1099 127.754C73.6017 127.052 74.1787 126.395 74.8922 125.913C75.4853 125.51 76.1619 125.234 76.8644 125.092C78.8884 124.664 80.9679 124.643 83.0282 124.64Z" fill="#2E2E2E" stroke="#2E2E2E"/>
<path d="M62.1168 125.671C62.7157 125.471 63.3273 125.227 63.9693 125.252C63.5956 125.643 63.208 126.023 62.8649 126.442C62.5009 126.917 62.0523 127.316 61.6481 127.755C59.8262 129.598 57.9719 131.408 56.1195 133.219C54.5958 134.692 53.0779 136.173 51.5075 137.597C51.1712 137.878 50.8649 138.214 50.452 138.383C49.2951 138.913 47.9978 138.976 46.7453 138.979C46.4654 138.968 46.1482 138.983 45.9213 138.791C45.726 138.629 45.6725 138.37 45.5815 138.147C45.4859 137.886 45.3506 137.643 45.209 137.405C45.2182 137.392 45.2367 137.364 45.2458 137.351C45.5505 137.09 45.8735 136.851 46.1776 136.588C46.6705 136.112 47.2181 135.699 47.7531 135.272C49.6769 133.761 51.6464 132.309 53.5708 130.799C54.4565 130.16 55.36 129.546 56.2646 128.935C57.2436 128.281 58.2213 127.623 59.2256 127.007C60.1239 126.433 61.1264 126.052 62.1168 125.671Z" fill="#2E2E2E" stroke="#2E2E2E"/>
<path d="M27.0398 138.147C27.9076 138.098 28.8393 138.157 29.5856 138.649C30.4926 139.251 31.0909 140.194 31.6137 141.126C32.1303 142.083 32.6491 143.049 32.9537 144.099C33.3136 145.249 33.4236 146.468 33.3153 147.667C33.2704 148.102 33.2508 148.546 33.1023 148.961C31.9126 148.949 30.7217 148.982 29.5326 148.938C28.4714 148.938 27.41 148.947 26.3488 148.935C26.3689 146.083 26.3678 143.231 26.3551 140.379C26.3453 139.764 26.3833 139.149 26.3499 138.535C26.3464 138.434 26.3453 138.321 26.415 138.239C26.6114 138.152 26.8296 138.161 27.0398 138.147Z" fill="#2E2E2E" stroke="#2E2E2E"/>
<path d="M99.3317 140.85C101.324 140.826 103.318 140.85 105.311 140.838C105.596 140.84 105.93 140.878 106.116 141.123C106.371 141.472 106.358 141.927 106.355 142.338C106.352 142.645 106.31 142.968 106.146 143.233C106.007 143.456 105.733 143.559 105.48 143.556C103.465 143.556 101.45 143.553 99.4354 143.559C99.1924 143.566 98.9223 143.497 98.7755 143.289C98.5981 143.031 98.567 142.704 98.5619 142.399C98.5659 141.99 98.5285 141.551 98.7318 141.179C98.848 140.962 99.0974 140.867 99.3317 140.85Z" fill="#2E2E2E" stroke="#2E2E2E"/>
<path d="M69.2294 140.931C69.3884 140.879 69.5583 140.888 69.7235 140.888C70.8948 140.893 72.0661 140.903 73.2379 140.898C74.1242 140.904 75.011 140.879 75.8966 140.929C76.1005 140.947 76.3072 141.057 76.3999 141.247C76.5732 141.584 76.5381 141.973 76.5438 142.34C76.5478 142.674 76.5248 143.031 76.3388 143.32C76.2046 143.527 75.9507 143.627 75.71 143.618C73.6951 143.612 71.6808 143.599 69.666 143.606C69.4207 143.606 69.1356 143.58 68.9697 143.376C68.7803 143.133 68.7688 142.808 68.7475 142.515C68.748 142.129 68.7157 141.736 68.82 141.36C68.8753 141.161 69.0268 140.986 69.2294 140.931Z" fill="#2E2E2E" stroke="#2E2E2E"/>
<path d="M162.213 148.271C162.399 148.069 162.78 148.001 163.119 148.002C167.686 148.002 172.253 148.003 176.82 148.001C177.135 147.996 177.498 148.004 177.734 148.163C177.972 148.328 177.981 148.571 177.999 148.784C177.999 149.11 177.948 149.435 177.982 149.76C177.977 149.948 178.017 150.135 177.991 150.323C177.963 150.508 177.934 150.719 177.71 150.853C177.479 150.989 177.152 151.002 176.858 151C172.277 150.999 167.697 150.999 163.116 151C162.817 151.001 162.488 150.956 162.286 150.798C162.052 150.614 162.028 150.361 162.005 150.131C161.995 149.749 162.007 149.368 162 148.987C162.013 148.744 162.022 148.486 162.213 148.271Z" fill="#2E2E2E" stroke="#2E2E2E"/>
<path d="M109.607 149.111C110.935 149.114 112.263 149.119 113.591 149.109C113.618 150.415 113.595 151.722 113.602 153.028C114.945 153.027 116.288 153.028 117.63 153.025C117.614 151.722 117.63 150.418 117.625 149.115C118.955 149.111 120.286 149.115 121.616 149.113C121.614 150.445 121.619 151.777 121.616 153.109C120.275 153.096 118.932 153.131 117.592 153.091C117.596 154.403 117.607 155.715 117.589 157.026C116.26 157.017 114.931 157.024 113.602 157.022C113.602 155.716 113.602 154.412 113.602 153.106C112.272 153.106 110.94 153.106 109.609 153.106C109.617 154.411 109.6 155.716 109.615 157.021C108.282 157.039 106.947 157.032 105.614 157.025C105.625 155.719 105.613 154.413 105.618 153.106C104.283 153.108 102.949 153.106 101.615 153.106C101.614 151.776 101.613 150.445 101.617 149.115C102.946 149.111 104.277 149.111 105.607 149.114C105.607 150.422 105.604 151.73 105.607 153.039C106.939 153.042 108.27 153.033 109.602 153.044C109.625 151.734 109.605 150.422 109.607 149.111Z" fill="#2E2E2E" stroke="#2E2E2E"/>
<path d="M77.9593 149.115C79.2895 149.117 80.6203 149.116 81.9511 149.113C81.9447 150.444 81.9511 151.775 81.9511 153.107C80.6197 153.105 79.2884 153.106 77.957 153.111C77.9593 151.779 77.9581 150.447 77.9593 149.115Z" fill="#2E2E2E" stroke="#2E2E2E"/>
<path d="M70.011 149.175C71.3418 149.172 72.6726 149.171 74.0033 149.171C73.9976 150.486 74.0085 151.802 73.9987 153.117C75.3232 153.149 76.6511 153.097 77.9743 153.138C77.9531 154.467 77.9812 155.797 77.9622 157.127C76.6355 157.115 75.3088 157.117 73.982 157.122C73.9613 155.803 73.9843 154.483 73.9768 153.164C72.6552 153.163 71.333 153.164 70.0109 153.164C70.0105 151.834 70.011 150.504 70.011 149.175Z" fill="#2E2E2E" stroke="#2E2E2E"/>
<path d="M85.7998 153.155C85.8246 151.826 85.7952 150.495 85.82 149.166C87.1421 149.177 88.4648 149.176 89.7869 149.166C89.8198 150.497 89.7887 151.83 89.8042 153.162C88.4987 153.168 87.1933 153.166 85.8879 153.165C85.8827 154.497 85.8873 155.828 85.8833 157.159C84.5502 157.158 83.2172 157.15 81.8846 157.165C81.8616 155.829 81.8811 154.492 81.8748 153.156C83.1832 153.157 84.4915 153.152 85.7998 153.155Z" fill="#2E2E2E" stroke="#2E2E2E"/>
<path d="M93.6705 149.173C95.0012 149.171 96.3315 149.171 97.6622 149.17C97.6628 150.502 97.6628 151.834 97.6594 153.166C96.3303 153.166 95.0007 153.155 93.6717 153.172C93.6739 151.839 93.6682 150.506 93.6705 149.173Z" fill="#2E2E2E" stroke="#2E2E2E"/>
<path d="M47.1272 150.312C49.3902 149.339 51.97 149.149 54.3586 149.736C56.1857 150.192 57.8908 151.112 59.2866 152.375C60.55 153.528 61.5497 154.969 62.1831 156.558C62.7837 158.052 63.0584 159.674 62.9916 161.283C62.907 163.668 62.0334 166.014 60.5483 167.88C59.1605 169.644 57.2383 170.981 55.1008 171.666C52.4053 172.54 49.3839 172.363 46.8139 171.167C44.0181 169.889 41.7937 167.428 40.8055 164.518C40.4496 163.485 40.2469 162.401 40.2008 161.311C40.1956 160.902 40.1893 160.493 40.217 160.085C40.3385 158.003 41.0577 155.963 42.2578 154.258C43.4723 152.524 45.1774 151.138 47.1272 150.312ZM50.9773 155.848C49.2814 156.046 47.7318 157.188 47.0454 158.751C46.5697 159.786 46.4839 160.986 46.7673 162.087C47.1882 163.718 48.4919 165.091 50.1089 165.574C51.1362 165.892 52.2683 165.868 53.2812 165.508C54.4905 165.08 55.5235 164.166 56.0781 163.008C56.8705 161.425 56.7311 159.414 55.7061 157.968C55.0353 156.99 54.0051 156.266 52.8568 155.971C52.2459 155.804 51.6038 155.792 50.9773 155.848Z" fill="#2E2E2E" stroke="#2E2E2E"/>
<path d="M141.736 149.787C143.89 149.22 146.21 149.286 148.324 149.995C151.22 150.955 153.68 153.139 154.981 155.898C155.772 157.536 156.131 159.367 156.085 161.182C156.01 163.992 154.833 166.749 152.868 168.758C151.819 169.834 150.561 170.707 149.178 171.295C147.556 171.994 145.766 172.3 144.004 172.192C142.103 172.087 140.234 171.487 138.623 170.473C137.196 169.578 135.971 168.364 135.066 166.943C133.973 165.239 133.348 163.236 133.288 161.212C133.261 160.132 133.36 159.047 133.633 158.001C134.139 155.968 135.232 154.088 136.734 152.63C138.125 151.28 139.861 150.285 141.736 149.787ZM144.139 155.839C142.662 155.995 141.281 156.847 140.484 158.101C139.953 158.921 139.675 159.903 139.699 160.879C139.696 162.491 140.554 164.067 141.896 164.956C142.859 165.616 144.062 165.898 145.22 165.773C146.728 165.624 148.14 164.732 148.927 163.438C149.858 161.972 149.923 160.013 149.109 158.482C148.627 157.566 147.856 156.806 146.931 156.344C146.076 155.901 145.092 155.755 144.139 155.839Z" fill="#2E2E2E" stroke="#2E2E2E"/>
<path d="M21.2168 153.516C21.2594 153.28 21.4621 153.077 21.7102 153.084C25.3726 153.082 29.035 153.084 32.6973 153.086C32.9277 153.069 33.1753 153.173 33.2726 153.393C33.4137 153.719 33.3877 154.084 33.3981 154.431C33.3918 154.764 33.409 155.11 33.2927 155.428C33.2138 155.648 32.984 155.786 32.7531 155.776C29.0689 155.775 25.3835 155.783 21.6986 155.775C21.5172 155.771 21.3422 155.662 21.2691 155.494C21.1343 155.196 21.1919 154.862 21.1804 154.546C21.1949 154.204 21.1448 153.854 21.2168 153.516Z" fill="#2E2E2E" stroke="#2E2E2E"/>
<path d="M121.424 153.159C122.754 153.147 124.084 153.159 125.413 153.157C125.421 154.49 125.416 155.822 125.415 157.155C124.084 157.158 122.754 157.16 121.422 157.158C121.427 155.825 121.414 154.492 121.424 153.159Z" fill="#2E2E2E" stroke="#2E2E2E"/>
<path d="M89.7803 157.189C89.7952 155.858 89.7687 154.525 89.7906 153.195C90.7788 153.21 91.7675 153.201 92.7562 153.204C93.0966 153.213 93.4392 153.181 93.7783 153.222C93.7697 154.545 93.7738 155.868 93.7778 157.191C92.4453 157.196 91.1128 157.198 89.7803 157.189Z" fill="#2E2E2E" stroke="#2E2E2E"/>
<path d="M97.6104 153.225C98.3906 153.198 99.1726 153.217 99.9541 153.211C100.507 153.221 101.06 153.195 101.613 153.223C101.598 154.553 101.612 155.884 101.603 157.215C100.274 157.219 98.9452 157.208 97.6167 157.216C97.6069 155.886 97.6218 154.555 97.6104 153.225Z" fill="#2E2E2E" stroke="#2E2E2E"/>
<path d="M50.9764 155.848C51.603 155.792 52.245 155.805 52.856 155.971C54.0043 156.266 55.0344 156.99 55.7053 157.968C56.7303 159.414 56.8697 161.425 56.0773 163.008C55.5228 164.166 54.4897 165.08 53.2804 165.508C52.2674 165.868 51.1353 165.892 50.1081 165.574C48.4911 165.09 47.1874 163.718 46.7664 162.087C46.4831 160.986 46.5689 159.786 47.0446 158.751C47.731 157.188 49.2806 156.046 50.9764 155.848Z" fill="#FFE500" stroke="#FFE500"/>
<path d="M144.139 155.839C145.092 155.755 146.076 155.901 146.931 156.344C147.857 156.806 148.628 157.566 149.109 158.482C149.924 160.013 149.858 161.972 148.927 163.438C148.14 164.732 146.728 165.624 145.22 165.773C144.062 165.898 142.859 165.616 141.897 164.956C140.554 164.067 139.696 162.491 139.7 160.879C139.675 159.903 139.953 158.921 140.484 158.101C141.281 156.847 142.662 155.995 144.139 155.839Z" fill="#FFE500" stroke="#FFE500"/>
<path d="M168 154.25C168 153.836 168.336 153.5 168.75 153.5H180.25C180.664 153.5 181 153.836 181 154.25V154.25C181 154.664 180.664 155 180.25 155H168.75C168.336 155 168 154.664 168 154.25V154.25Z" fill="#2E2E2E"/>
<defs>
<linearGradient id="paint0_linear_203_270" x1="21.5073" y1="139.169" x2="-9.1946e-08" y2="139.169" gradientUnits="userSpaceOnUse">
<stop stop-color="#2E2E2E"/>
<stop offset="1" stop-color="#2E2E2E" stop-opacity="0"/>
</linearGradient>
<linearGradient id="paint1_linear_203_270" x1="14.8897" y1="143.14" x2="4.96323" y2="143.14" gradientUnits="userSpaceOnUse">
<stop stop-color="#2E2E2E"/>
<stop offset="0.161246" stop-color="#2E2E2E" stop-opacity="0.838754"/>
<stop offset="1" stop-color="#2E2E2E" stop-opacity="0"/>
</linearGradient>
<linearGradient id="paint2_linear_203_270" x1="21.5073" y1="145.125" x2="-9.1946e-08" y2="145.125" gradientUnits="userSpaceOnUse">
<stop stop-color="#2E2E2E"/>
<stop offset="1" stop-color="#2E2E2E" stop-opacity="0"/>
</linearGradient>
<linearGradient id="paint3_linear_203_270" x1="19.522" y1="147.11" x2="13.897" y2="147.11" gradientUnits="userSpaceOnUse">
<stop stop-color="#2E2E2E"/>
<stop offset="1" stop-color="#2E2E2E" stop-opacity="0"/>
</linearGradient>
<linearGradient id="paint4_linear_203_270" x1="6.28676" y1="149.096" x2="-2.0179e-07" y2="149.096" gradientUnits="userSpaceOnUse">
<stop stop-color="#2E2E2E"/>
<stop offset="1" stop-color="#2E2E2E" stop-opacity="0"/>
</linearGradient>
<linearGradient id="paint5_linear_203_270" x1="21.5073" y1="151.081" x2="8.93381" y2="151.081" gradientUnits="userSpaceOnUse">
<stop stop-color="#2E2E2E"/>
<stop offset="1" stop-color="#2E2E2E" stop-opacity="0"/>
</linearGradient>
<linearGradient id="paint6_linear_203_270" x1="11.25" y1="153.066" x2="4.96323" y2="153.066" gradientUnits="userSpaceOnUse">
<stop stop-color="#2E2E2E"/>
<stop offset="1" stop-color="#2E2E2E" stop-opacity="0"/>
</linearGradient>
<linearGradient id="paint7_linear_203_270" x1="16.875" y1="155.051" x2="10.8" y2="155.25" gradientUnits="userSpaceOnUse">
<stop stop-color="#2E2E2E"/>
<stop offset="1" stop-color="#2E2E2E" stop-opacity="0"/>
</linearGradient>
<linearGradient id="paint8_linear_203_270" x1="5.62499" y1="157.037" x2="1.32353" y2="157.037" gradientUnits="userSpaceOnUse">
<stop stop-color="#2E2E2E"/>
<stop offset="1" stop-color="#2E2E2E" stop-opacity="0"/>
</linearGradient>
<linearGradient id="paint9_linear_203_270" x1="21.5073" y1="159.022" x2="3.6397" y2="159.022" gradientUnits="userSpaceOnUse">
<stop stop-color="#2E2E2E"/>
<stop offset="1" stop-color="#2E2E2E" stop-opacity="0"/>
</linearGradient>
<linearGradient id="paint10_linear_203_270" x1="11.25" y1="161.007" x2="0.992646" y2="161.007" gradientUnits="userSpaceOnUse">
<stop stop-color="#2E2E2E"/>
<stop offset="1" stop-color="#2E2E2E" stop-opacity="0"/>
</linearGradient>
<linearGradient id="paint11_linear_203_270" x1="26.8014" y1="141.154" x2="9.2647" y2="141.154" gradientUnits="userSpaceOnUse">
<stop stop-color="#2E2E2E"/>
<stop offset="1" stop-color="#2E2E2E" stop-opacity="0"/>
</linearGradient>
</defs>
</svg>
