{
    "version": "2.0",
    "routeKey": "$default",
    "rawPath": "/",
    "rawQueryString": "",
    "headers": {
        "x-hub-signature-256": "sha256=3b0bafcb49f39428d1935ef87a9e50a4b6fff3155746919df85686ce080a5375",
        "content-length": "421",
        "x-amzn-tls-version": "TLSv1.2",
        "x-forwarded-proto": "https",
        "x-forwarded-port": "443",
        "x-forwarded-for": "2a03:2880:22ff:2::face:b00c",
        "accept": "*/*",
        "x-amzn-tls-cipher-suite": "ECDHE-RSA-AES128-GCM-SHA256",
        "x-amzn-trace-id": "Root=1-643b7912-224b349346081f345ea2b33d",
        "host": "ppsqe6w5d33pozy4kfhrvqkjma0gitob.lambda-url.ap-south-1.on.aws",
        "content-type": "application/json",
        "accept-encoding": "deflate, gzip",
        "user-agent": "facebookexternalua",
        "x-hub-signature": "sha1=f64b4f76cbcfb41e3f65d9c57ec16c61cff8161f"
    },
    "requestContext": {
        "accountId": "anonymous",
        "apiId": "ppsqe6w5d33pozy4kfhrvqkjma0gitob",
        "domainName": "ppsqe6w5d33pozy4kfhrvqkjma0gitob.lambda-url.ap-south-1.on.aws",
        "domainPrefix": "ppsqe6w5d33pozy4kfhrvqkjma0gitob",
        "http": {
            "method": "POST",
            "path": "/",
            "protocol": "HTTP/1.1",
            "sourceIp": "2a03:2880:22ff:2::face:b00c",
            "userAgent": "facebookexternalua"
        },
        "requestId": "f82c5c75-7f74-4c81-bb34-602ee0c3cf82",
        "routeKey": "$default",
        "stage": "$default",
        "time": "16/Apr/2023:04:26:58 +0000",
        "timeEpoch": 1681619218840
    },
    "body": "{\"object\":\"whatsapp_business_account\",\"entry\":[{\"id\":\"0\",\"changes\":[{\"field\":\"messages\",\"value\":{\"messaging_product\":\"whatsapp\",\"metadata\":{\"display_phone_number\":\"16505551111\",\"phone_number_id\":\"123456123\"},\"contacts\":[{\"profile\":{\"name\":\"test user name\"},\"wa_id\":\"16315551181\"}],\"messages\":[{\"from\":\"16315551181\",\"id\":\"ABGGFlA5Fpa\",\"timestamp\":\"1504902988\",\"type\":\"text\",\"text\":{\"body\":\"this is a text message\"}}]}}]}]}",
    "isBase64Encoded": false
}