{
    "_id": "84754f06-b1d5-46bd-a04c-c1daff34372b",
    "colName": "Gogo",
    "created": "2023-04-07T03:16:32.525Z",
    "sortNum": 10000,
    "folders": [],
    "requests": [
        {
            "_id": "d2ec2b85-d024-41f2-975f-e7b2cb7feaf8",
            "colId": "b8f9ffbc-675f-460a-8bbd-b6c1c92306da",
            "containerId": "",
            "name": "Get vendor ",
            "url": "{{host}}/cab-vendors?cabVendorId=114205603249694360772&expand=all",
            "method": "GET",
            "sortNum": 20000,
            "created": "2022-10-31T02:40:27.510Z",
            "modified": "2023-02-04T05:11:16.380Z",
            "headers": [],
            "params": [
                {
                    "name": "cabVendorId",
                    "value": "114205603249694360772",
                    "isPath": false
                },
                {
                    "name": "expand",
                    "value": "all",
                    "isPath": false
                }
            ],
            "tests": []
        },
        {
            "_id": "08b9c3a1-f89b-4cbb-9ed0-1f80d1ea8ddd",
            "colId": "b8f9ffbc-675f-460a-8bbd-b6c1c92306da",
            "containerId": "",
            "name": "createItem",
            "url": "192.168.0.244:8787/create-item",
            "method": "POST",
            "sortNum": 15000,
            "created": "2022-10-31T04:29:22.860Z",
            "modified": "2022-12-04T06:00:01.797Z",
            "headers": [],
            "params": [],
            "body": {
                "type": "json",
                "raw": "{\n  \"tableName\": \"rides\",\n  \"item\": {\n   \"bookingId\": \"booking4\",\n   \"rideStatus\": \"UNASSIGNED\",\n   \"bookingDetails\": {\n     \"from\": \"Rasipuram\",\n     \"to\": \"Salem\",\n     \"estDistance\": 120,\n     \"type\": \"ONE_WAY\",\n     \"cabType\": \"SEDAN\",\n     \"tripStartTime\": \"2022-10-31T04:12:23.164Z\",\n     \"estRideEndTime\": \"2022-10-31T04:12:23.164Z\",\n     \"estDuration\": \"7 hours\"\n   },\n   \"priceDetails\": {\n     \"customer\": {\n       \"totalAmountWithoutDiscounts\": 4000\n     },\n     \"cabVendor\": {\n       \"transactionFee\": 401\n     },\n     \"pricePerKm\": 23\n   },\n   \"customerDetails\": {\n      \"phoneNumber\": \"733838088\",\n      \"email\": \"\",\n      \"customerId\": \"733838088\"\n   },\n   \"createdDate\": \"2022-11-06T22:50:56.158Z\"\n  }\n}",
                "form": []
            },
            "tests": []
        },
        {
            "_id": "50a249a3-020d-4b6c-9f36-517958112fd5",
            "colId": "b8f9ffbc-675f-460a-8bbd-b6c1c92306da",
            "containerId": "",
            "name": "Create Razor order",
            "url": "192.168.0.244:8787/wallet/razorpay-order",
            "method": "POST",
            "sortNum": 40000,
            "created": "2022-11-05T22:22:03.783Z",
            "modified": "2023-03-05T04:42:44.975Z",
            "headers": [],
            "params": [],
            "body": {
                "type": "json",
                "raw": "{\n  \"cabVendorId\": \"hello\",\n  \"amount\": 50000,\n  \"notes\": {\n    \"cabVendorName\": \"Sankar\",\n    \"cabVendorNo\": \"1234567890\",\n    \"cabVendorEmail\": \"uvsan@gmai.com\"\n  }\n}\n",
                "form": []
            },
            "tests": []
        },
        {
            "_id": "957c88aa-a917-4c81-8ebe-745ce3a06d55",
            "colId": "b8f9ffbc-675f-460a-8bbd-b6c1c92306da",
            "containerId": "",
            "name": "Verify Payment",
            "url": "{{host}}/wallet/verify-razorpay-order",
            "method": "POST",
            "sortNum": 50000,
            "created": "2022-11-06T04:03:02.280Z",
            "modified": "2023-02-26T18:36:47.873Z",
            "headers": [],
            "params": [],
            "body": {
                "type": "json",
                "raw": "{\n  \"cabVendorId\": \"114205603249694360772\",\n  \"orderCreatedDate\": \"1677436462\",\n  \"orderId\": \"order_LLAooR3k5fuNKS\",\n  \"paymentId\": \"pay_LLApD8f4vVI51D\",\n \n  \"signature\": \"d9ea1d0b03af145e712b16533519c9c3e21099b4fe6f30690310323a102aff2b\"\n}",
                "form": []
            },
            "tests": []
        },
        {
            "_id": "6bda15c4-5bb9-478e-aaa7-5a3939071b35",
            "colId": "b8f9ffbc-675f-460a-8bbd-b6c1c92306da",
            "containerId": "",
            "name": "Assign ride",
            "url": "{{host}}/rides",
            "method": "PUT",
            "sortNum": 60000,
            "created": "2022-11-06T20:14:45.848Z",
            "modified": "2023-01-09T03:17:26.091Z",
            "headers": [],
            "params": [],
            "body": {
                "type": "json",
                "raw": "{\n  \"bookingId\": \"09EWNB\",\n  \"cabVendorId\": \"114205603249694360772\",\n  \"action\": \"ASSIGN_DRIVER\"\n}",
                "form": []
            },
            "tests": []
        },
        {
            "_id": "a396c35b-e2a3-4b21-81f2-b5d87dcb77b7",
            "colId": "b8f9ffbc-675f-460a-8bbd-b6c1c92306da",
            "containerId": "",
            "name": "Get rides",
            "url": "{{host}}/rides?bookingIds=booking1,booking3&cabVendorId=106201177605008703346",
            "method": "GET",
            "sortNum": 70000,
            "created": "2022-11-06T22:04:45.088Z",
            "modified": "2023-01-09T01:39:27.481Z",
            "headers": [],
            "params": [
                {
                    "name": "bookingIds",
                    "value": "booking1,booking3",
                    "isPath": false
                },
                {
                    "name": "cabVendorId",
                    "value": "106201177605008703346",
                    "isPath": false
                }
            ],
            "tests": []
        },
        {
            "_id": "5a40b513-515a-45c3-8679-4af2a41cdc52",
            "colId": "b8f9ffbc-675f-460a-8bbd-b6c1c92306da",
            "containerId": "",
            "name": "Unassigned rides",
            "url": "192.168.0.244:8787/rides/unassigned",
            "method": "GET",
            "sortNum": 80000,
            "created": "2022-11-06T22:50:28.363Z",
            "modified": "2022-11-06T22:50:28.363Z",
            "headers": [],
            "params": [],
            "tests": []
        },
        {
            "_id": "7f26eaf6-0695-4120-98f3-82915e07c46f",
            "colId": "b8f9ffbc-675f-460a-8bbd-b6c1c92306da",
            "containerId": "",
            "name": "PUT Config",
            "url": "https://api-worker-production.gogocabs.workers.dev/cab-vendors/config",
            "method": "PUT",
            "sortNum": 90000,
            "created": "2022-11-19T20:04:58.326Z",
            "modified": "2022-12-12T05:05:52.988Z",
            "headers": [],
            "params": [],
            "body": {
                "type": "json",
                "raw": "{\n  \"cabVendorId\": \"106201177605008703346\",\n  \"deviceToken\": \"blaffffh\",\n  \"googleIdToken\": \"eyJhbGciOiJSUzI1NiIsImtpZCI6IjI3Yjg2ZGM2OTM4ZGMzMjdiMjA0MzMzYTI1MGViYjQzYjMyZTRiM2MiLCJ0eXAiOiJKV1QifQ.eyJpc3MiOiJodHRwczovL2FjY291bnRzLmdvb2dsZS5jb20iLCJhenAiOiI1MTY0Njg3NDU1MjUtMmRjbDdtOWZvYmszMmZwc2VxbzFvcGpyYmw2M2wzaGouYXBwcy5nb29nbGV1c2VyY29udGVudC5jb20iLCJhdWQiOiI1MTY0Njg3NDU1MjUtMHNqdDBoaHNoNzhvN2lxampwdjVnbGxwcmU0dXMwajYuYXBwcy5nb29nbGV1c2VyY29udGVudC5jb20iLCJzdWIiOiIxMDYyMDExNzc2MDUwMDg3MDMzNDYiLCJlbWFpbCI6InV2c2Fua2FyOTRAZ21haWwuY29tIiwiZW1haWxfdmVyaWZpZWQiOnRydWUsIm5hbWUiOiJTYW5rYXIgVmFyYWRhcmFqYW4iLCJwaWN0dXJlIjoiaHR0cHM6Ly9saDMuZ29vZ2xldXNlcmNvbnRlbnQuY29tL2EvQUxtNXd1MUktcWM3NUdfcDRMdW4zU2QtdmFCai1uN1MyaVc2TXVlbjFSc3E9czk2LWMiLCJnaXZlbl9uYW1lIjoiU2Fua2FyIiwiZmFtaWx5X25hbWUiOiJWYXJhZGFyYWphbiIsImxvY2FsZSI6ImVuIiwiaWF0IjoxNjY5MzIyNDE2LCJleHAiOjE2NjkzMjYwMTZ9.zYhNmY2zPLVCBqLZVG9TBVzg_DVie4riTMmXmCjYfCF6_SZSjGqbrt_Qxhpb7xcSFtzU7878NyJ7ot6-Lxs6p4SMu-WYdZ8yTmsYiDb1Xac9GRZzbEkEkoR_lybV-ghhX-fe__XT6yrDHPyil-y14CmqaM4wKeWA6qfT1hZUmF5RrXelF874uNsFKo5tt5G-ZssaObrlcYiDuAYSB2lMGJkuHfFuuQzTh4K-IDk5oHCnIczwBqIdOcl7R9dm2ab6DMLFa3guofAtAhdGbsnYIEf8eLsxNlegCXrWkA8NJVENgWhEJti5YAYk3XxfJXpINV_GVNjHB9RUq8nZrT2LWQ\"\n}",
                "form": []
            },
            "tests": []
        },
        {
            "_id": "27ef6d1e-aaff-4a72-a105-3ec4c42b9ab5",
            "colId": "b8f9ffbc-675f-460a-8bbd-b6c1c92306da",
            "containerId": "",
            "name": "GET rateCards",
            "url": "192.168.0.244:8787/rateCards?tripType=ROUND_TRIP&pickupPlaceId=ChIJYTN9T-plUjoRM9RjaAunYW4&dropPlaceId=ChIJTVzQ_DYRVToRtxW9yDmujy4&pickUpDate=2023-03-17T09:02:00.000Z&dropDate=2023-03-17T10:04:00.000Z&keepCab=true",
            "method": "GET",
            "sortNum": 100000,
            "created": "2022-11-26T01:13:41.928Z",
            "modified": "2023-03-14T06:37:22.185Z",
            "headers": [],
            "params": [
                {
                    "name": "tripType",
                    "value": "ONE_WAY",
                    "isDisabled": true,
                    "isPath": false
                },
                {
                    "name": "tripType",
                    "value": "ROUND_TRIP",
                    "isPath": false
                },
                {
                    "name": "pickupPlaceId",
                    "value": "ChIJYTN9T-plUjoRM9RjaAunYW4",
                    "isPath": false
                },
                {
                    "name": "dropPlaceId",
                    "value": "ChIJTVzQ_DYRVToRtxW9yDmujy4",
                    "isPath": false
                },
                {
                    "name": "pickUpDate",
                    "value": "2023-03-17T09:02:00.000Z",
                    "isPath": false
                },
                {
                    "name": "dropDate",
                    "value": "2023-03-17T10:04:00.000Z",
                    "isPath": false
                },
                {
                    "name": "keepCab",
                    "value": "true",
                    "isPath": false
                }
            ],
            "tests": []
        },
        {
            "_id": "fa278acf-cd13-4260-87ab-fad0d0f0bfde",
            "colId": "b8f9ffbc-675f-460a-8bbd-b6c1c92306da",
            "containerId": "",
            "name": "Publish rides",
            "url": "{{host}}/rides",
            "method": "POST",
            "sortNum": 110000,
            "created": "2022-12-18T20:13:00.967Z",
            "modified": "2023-03-14T06:33:21.454Z",
            "headers": [],
            "params": [],
            "body": {
                "type": "json",
                "raw": "{\"bookingDetails\":{\"tripType\":\"ROUND_TRIP\",\"pickupPlaceId\":\"ChIJYTN9T-plUjoRM9RjaAunYW4\",\"dropPlaceId\":\"ChIJTVzQ_DYRVToRtxW9yDmujy4\",\"pickUpDate\":\"2023-03-17T09:02:00.000Z\",\"dropTime\":\"2023-03-17T10:04:00.000Z\",\"keepCab\":\"true\",\"cabType\":\"innova\"},\"customerDetails\":{\"phoneNumber\":\"7896756778\",\"name\":\"test\",\"email\":\"test@test.com\"},\"rateCardId\":203}",
                "form": []
            },
            "tests": []
        },
        {
            "_id": "53c7d30b-a634-4593-a2eb-d76089225674",
            "colId": "b8f9ffbc-675f-460a-8bbd-b6c1c92306da",
            "containerId": "",
            "name": "Admin updateRateCard",
            "url": "{{host}}/admin/rateCards",
            "method": "PUT",
            "sortNum": 120000,
            "created": "2023-01-02T21:48:34.034Z",
            "modified": "2023-01-22T06:35:47.645Z",
            "headers": [],
            "params": [],
            "body": {
                "type": "json",
                "raw": "{\n  \"rateCards\": {\n    \"101\":{\n      \"rate\": 13\n    },\n    \"104\": {\n      \"rate\": 14\n    },\n    \"102\": {\n      \"rate\": 18\n    },\n    \"103\": {\n      \"rate\": 19\n    }\n  }\n}",
                "form": []
            },
            "tests": []
        },
        {
            "_id": "ee6008f5-01c1-4303-aef9-ce3d72e452eb",
            "colId": "b8f9ffbc-675f-460a-8bbd-b6c1c92306da",
            "containerId": "",
            "name": "ADMIN PerformAction",
            "url": "{{host}}/admin/peformAction",
            "method": "POST",
            "sortNum": 130000,
            "created": "2023-01-28T23:43:24.153Z",
            "modified": "2023-02-20T08:27:40.181Z",
            "headers": [],
            "params": [],
            "body": {
                "type": "json",
                "raw": "{\n    \"googleUserId\": \"114205603249694360772\",\n\"googleIdToken\":\"eyJhbGciOiJSUzI1NiIsImtpZCI6IjU5NjJlN2EwNTljN2Y1YzBjMGQ1NmNiYWQ1MWZlNjRjZWVjYTY3YzYiLCJ0eXAiOiJKV1QifQ.eyJpc3MiOiJodHRwczovL2FjY291bnRzLmdvb2dsZS5jb20iLCJuYmYiOjE2NzY4ODEyODksImF1ZCI6IjUxNjQ2ODc0NTUyNS0wc2p0MGhoc2g3OG83aXFqanB2NWdsbHByZTR1czBqNi5hcHBzLmdvb2dsZXVzZXJjb250ZW50LmNvbSIsInN1YiI6IjExNDIwNTYwMzI0OTY5NDM2MDc3MiIsImVtYWlsIjoiZ29nb2NhYm1haWxAZ21haWwuY29tIiwiZW1haWxfdmVyaWZpZWQiOnRydWUsImF6cCI6IjUxNjQ2ODc0NTUyNS0wc2p0MGhoc2g3OG83aXFqanB2NWdsbHByZTR1czBqNi5hcHBzLmdvb2dsZXVzZXJjb250ZW50LmNvbSIsIm5hbWUiOiJHb0dvIENhYiIsInBpY3R1cmUiOiJodHRwczovL2xoMy5nb29nbGV1c2VyY29udGVudC5jb20vYS9BRWRGVHA3NXhsWktOZUNnVUIzZnlDVXNYcWFGWS1YdXVRenRBZE1md0RldT1zOTYtYyIsImdpdmVuX25hbWUiOiJHb0dvIiwiZmFtaWx5X25hbWUiOiJDYWIiLCJpYXQiOjE2NzY4ODE1ODksImV4cCI6MTY3Njg4NTE4OSwianRpIjoiMDkzOTI3NTZhMjRmYjQ4YWY2N2ZlMGVkMDc4NzIwY2RiOTBlYWM2NyJ9.fMgtONx0oTBduM2pOo_hoyC9LS48R35Fzwku_bs0o_2W2F1RIvNmg4toyWMQGw-gaKggdNBjujK7lRk2pXK8FkCHivujWk0pgtmbF2GaMo1zo5Rn3-SwsNaM_OclfjGDfL9mL3k_J_iZO81elFPVkVm9_qOeaG5-hxzmCqB8YGNFUgEFyUzPtJFBNv8pN4V4WO_KXH-RhpmtYFYhm8PYkaVztj3MGrR6RBR_PTwRhU5W5n534VAydEr6t_uLv_eVyBVb7QygTPJi970ic4cVxlyB2FhmqYatim-AazoqBmOKvSUf_SOf-lmOYj0tpwrvl3vcB_bgeGsjbPaU1VpDKg\",\n  \"requestType\": \"UPDATE_VENDOR_STATE\",\n  \"payload\": {\n    \"cabVendorId\": \"114205603249694360772\",\n    \"vendorStatus\": \"APPROVED\"\n  }\n}",
                "form": []
            },
            "tests": []
        },
        {
            "_id": "28dea2cc-ee40-463e-8e18-4642243af5a5",
            "colId": "b8f9ffbc-675f-460a-8bbd-b6c1c92306da",
            "containerId": "",
            "name": "ADMIN vendorByStatus",
            "url": "{{host}}/admin/peformAction",
            "method": "POST",
            "sortNum": 140000,
            "created": "2023-01-29T02:06:18.330Z",
            "modified": "2023-03-29T15:38:13.189Z",
            "headers": [],
            "params": [],
            "body": {
                "type": "json",
                "raw": "{\n    \"googleUserId\": \"106201177605008703346\",\n  \"googleIdToken\": \n\"eyJhbGciOiJSUzI1NiIsImtpZCI6IjFhYWU4ZDdjOTIwNThiNWVlYTQ1Njg5NWJmODkwODQ1NzFlMzA2ZjMiLCJ0eXAiOiJKV1QifQ.eyJpc3MiOiJodHRwczovL2FjY291bnRzLmdvb2dsZS5jb20iLCJuYmYiOjE2ODAxMDM5NjUsImF1ZCI6IjUxNjQ2ODc0NTUyNS0wc2p0MGhoc2g3OG83aXFqanB2NWdsbHByZTR1czBqNi5hcHBzLmdvb2dsZXVzZXJjb250ZW50LmNvbSIsInN1YiI6IjEwNjIwMTE3NzYwNTAwODcwMzM0NiIsImVtYWlsIjoidXZzYW5rYXI5NEBnbWFpbC5jb20iLCJlbWFpbF92ZXJpZmllZCI6dHJ1ZSwiYXpwIjoiNTE2NDY4NzQ1NTI1LTBzanQwaGhzaDc4bzdpcWpqcHY1Z2xscHJlNHVzMGo2LmFwcHMuZ29vZ2xldXNlcmNvbnRlbnQuY29tIiwibmFtZSI6IlNhbmthciBWYXJhZGFyYWphbiIsInBpY3R1cmUiOiJodHRwczovL2xoMy5nb29nbGV1c2VyY29udGVudC5jb20vYS9BR05teXhiN1J2Qlkxc190b1VxdXFBRDFNN0V0WF80TXRmeUEweER6T1l0OD1zOTYtYyIsImdpdmVuX25hbWUiOiJTYW5rYXIiLCJmYW1pbHlfbmFtZSI6IlZhcmFkYXJhamFuIiwiaWF0IjoxNjgwMTA0MjY1LCJleHAiOjE2ODAxMDc4NjUsImp0aSI6IjdlZmNjNDM5OGY5ZTA0MTAzNzE3OGExM2NkNjMyMTJmYjExN2U5YzMifQ.EK6VOgYMfkVBn5aBZpObJiqy4EPiyd3z4yGowfh49dcVeP9OyaLNE5dEPoczaPUI8cAgAUoefxQSI5sKAWV6PMB-kFd7a1nfjqBVCce06w2_CsIXFxU2ycGURbKV7VudlNR67dRgzK2HpFN3XMe63G5y7HFQjuxD4038Bs7gnaBlTZu5d_jMjbXPoPw9X0MRC70f2wr6G9QjYk2XVBlbT46MhD6AfZmQbSpLP_bm6YStbtiv6kVlZHmkhEMas8VGn_sYkh7ePMHQpAsiehvqm4XGTAbov4ug171EXfJYJ19tX-ySs1qEe3OdjI2kIfvq8SQbaEDd8youSUwyjPOVuQ\",\n  \"requestType\": \"GET_VENDORS_BY_STATUS\",\n  \"payload\": {\n    \"vendorStatus\": \"APPROVED\"\n  }\n}",
                "form": []
            },
            "tests": []
        },
        {
            "_id": "5a15f870-c921-4f6b-9e18-a16d6da0b79c",
            "colId": "b8f9ffbc-675f-460a-8bbd-b6c1c92306da",
            "containerId": "",
            "name": "ADMIN GET rides",
            "url": "{{host}}/admin/peformAction",
            "method": "POST",
            "sortNum": 150000,
            "created": "2023-01-29T02:41:16.956Z",
            "modified": "2023-01-29T02:41:57.654Z",
            "headers": [],
            "params": [],
            "body": {
                "type": "json",
                "raw": "{\n    \"googleUserId\": \"114205603249694360772\",\n  \"googleIdToken\": \"eyJhbGciOiJSUzI1NiIsImtpZCI6ImFmYzRmYmE2NTk5ZmY1ZjYzYjcyZGM1MjI0MjgyNzg2ODJmM2E3ZjEiLCJ0eXAiOiJKV1QifQ.eyJpc3MiOiJodHRwczovL2FjY291bnRzLmdvb2dsZS5jb20iLCJuYmYiOjE2NzQ5NTc4MjQsImF1ZCI6IjUxNjQ2ODc0NTUyNS0wc2p0MGhoc2g3OG83aXFqanB2NWdsbHByZTR1czBqNi5hcHBzLmdvb2dsZXVzZXJjb250ZW50LmNvbSIsInN1YiI6IjExNDIwNTYwMzI0OTY5NDM2MDc3MiIsImVtYWlsIjoiZ29nb2NhYm1haWxAZ21haWwuY29tIiwiZW1haWxfdmVyaWZpZWQiOnRydWUsImF6cCI6IjUxNjQ2ODc0NTUyNS0wc2p0MGhoc2g3OG83aXFqanB2NWdsbHByZTR1czBqNi5hcHBzLmdvb2dsZXVzZXJjb250ZW50LmNvbSIsIm5hbWUiOiJHb0dvIENhYiIsInBpY3R1cmUiOiJodHRwczovL2xoMy5nb29nbGV1c2VyY29udGVudC5jb20vYS9BRWRGVHA3NXhsWktOZUNnVUIzZnlDVXNYcWFGWS1YdXVRenRBZE1md0RldT1zOTYtYyIsImdpdmVuX25hbWUiOiJHb0dvIiwiZmFtaWx5X25hbWUiOiJDYWIiLCJpYXQiOjE2NzQ5NTgxMjQsImV4cCI6MTY3NDk2MTcyNCwianRpIjoiZGIxMzI2ZTAxNGNmMzBhMDEzOThjMzM3YzUyNzkxZGM2NWNkM2EwYyJ9.GiQtZUfHU8CrbrZF-0R_Si6NYkTHPTYGAdodI1lVoZ_NXK4inFuadVJe-eA8lMnNPAXPKwL_M5RYM0JsYWwedMI6YfqvB7bP4qYJb0ZDS992rJoqhuTKui9USteUPxgVgx8VKREBdLt8Sxda9e2cGuvDQcns3zW78a6SrC5Ms9FQYd48qmJvzqbA88UmugXbeJ1hcFrtks3k5mbe2W71S8hI1jxb7elia5wmp3hHsU961ldCGDtMQ8wZasypKuXXiHMYk13d0zc73_ilEKuu-lKg5l6nB7-9HrrZR5GoN3QbQgeFZdZmEjQN8jxxap-o-mhM2OdsyKmc3IdLGYUqPw\",\n  \"requestType\": \"GET_RIDES\",\n  \"payload\": {\n    \"rideStatus\": \"UNASSIGNED\"\n  }\n}",
                "form": []
            },
            "tests": []
        },
        {
            "_id": "265b04ca-1a29-4e49-b9d4-f82141f164cb",
            "colId": "b8f9ffbc-675f-460a-8bbd-b6c1c92306da",
            "containerId": "",
            "name": "ADMIN CANCEL RIDE",
            "url": "{{host}}/admin/cancelRide",
            "method": "PUT",
            "sortNum": 160000,
            "created": "2023-03-22T03:49:05.391Z",
            "modified": "2023-03-28T06:07:28.209Z",
            "headers": [],
            "params": [],
            "body": {
                "type": "json",
                "raw": "{\n  \"bookingId\": \"MW544G\",\n  \"cabVendorId\": \"105339091915975258424\",\n  \"curRideStatus\": \"COMPLETED\",\n  \"googleUserId\": \"106201177605008703346\",\n  \"googleIdToken\": \"eyJhbGciOiJSUzI1NiIsImtpZCI6IjFhYWU4ZDdjOTIwNThiNWVlYTQ1Njg5NWJmODkwODQ1NzFlMzA2ZjMiLCJ0eXAiOiJKV1QifQ.eyJpc3MiOiJodHRwczovL2FjY291bnRzLmdvb2dsZS5jb20iLCJuYmYiOjE2Nzk5ODMyMTksImF1ZCI6IjUxNjQ2ODc0NTUyNS0wc2p0MGhoc2g3OG83aXFqanB2NWdsbHByZTR1czBqNi5hcHBzLmdvb2dsZXVzZXJjb250ZW50LmNvbSIsInN1YiI6IjEwNjIwMTE3NzYwNTAwODcwMzM0NiIsImVtYWlsIjoidXZzYW5rYXI5NEBnbWFpbC5jb20iLCJlbWFpbF92ZXJpZmllZCI6dHJ1ZSwiYXpwIjoiNTE2NDY4NzQ1NTI1LTBzanQwaGhzaDc4bzdpcWpqcHY1Z2xscHJlNHVzMGo2LmFwcHMuZ29vZ2xldXNlcmNvbnRlbnQuY29tIiwibmFtZSI6IlNhbmthciBWYXJhZGFyYWphbiIsInBpY3R1cmUiOiJodHRwczovL2xoMy5nb29nbGV1c2VyY29udGVudC5jb20vYS9BR05teXhiN1J2Qlkxc190b1VxdXFBRDFNN0V0WF80TXRmeUEweER6T1l0OD1zOTYtYyIsImdpdmVuX25hbWUiOiJTYW5rYXIiLCJmYW1pbHlfbmFtZSI6IlZhcmFkYXJhamFuIiwiaWF0IjoxNjc5OTgzNTE5LCJleHAiOjE2Nzk5ODcxMTksImp0aSI6IjYyZjJlNjRlNzY4ZWY3ZWJkYmE4OWFkOGM3NDFiYmQ2ZWNmNTFhZTMifQ.h7nenO0q6umvrs42zFrSBkjG5CKme0rsmrJJOs_lHpIvtfxU2_o58bK2FWPwebuypRn5dj-Zi8Wf702RB5Ll8f5ojS1fyqnUS9WFK_up8wK-itJlRu0KSDNO4sfMpCCtM5ZZUGgt6GmEUTIGJzxRJq6zEL-gnC8wMLZUIklzv9HDIDeWab6RE7CbuImCKV0vSoMe6mPGWb57_hs-Oe-d6rqLr3RBViLAeFuqBwlDy8w5RNgoCzYS_U2kGgenumaT86RVvEgUHFcXUpXIZt7KHcoH95wsBuzAlbGS8HO1lQEwBmyPjOIUb1_rVho0x-tCrbLnpup5G135XMnXE2q95Q\"\n}",
                "form": []
            },
            "tests": []
        },
        {
            "_id": "b7cd6288-86a0-43ef-9a96-7802af2a1b97",
            "colId": "b8f9ffbc-675f-460a-8bbd-b6c1c92306da",
            "containerId": "",
            "name": "ADMIN GET vendor",
            "url": "{{host}}/admin/peformAction",
            "method": "POST",
            "sortNum": 145000,
            "created": "2023-04-07T02:41:00.864Z",
            "modified": "2023-04-07T02:42:05.953Z",
            "headers": [],
            "params": [],
            "body": {
                "type": "json",
                "raw": "{\n    \"googleUserId\": \"106201177605008703346\",\n  \"googleIdToken\": \n\"eyJhbGciOiJSUzI1NiIsImtpZCI6ImFjZGEzNjBmYjM2Y2QxNWZmODNhZjgzZTE3M2Y0N2ZmYzM2ZDExMWMiLCJ0eXAiOiJKV1QifQ.eyJpc3MiOiJodHRwczovL2FjY291bnRzLmdvb2dsZS5jb20iLCJuYmYiOjE2ODA4MzQ4OTUsImF1ZCI6IjUxNjQ2ODc0NTUyNS0wc2p0MGhoc2g3OG83aXFqanB2NWdsbHByZTR1czBqNi5hcHBzLmdvb2dsZXVzZXJjb250ZW50LmNvbSIsInN1YiI6IjEwNjIwMTE3NzYwNTAwODcwMzM0NiIsImVtYWlsIjoidXZzYW5rYXI5NEBnbWFpbC5jb20iLCJlbWFpbF92ZXJpZmllZCI6dHJ1ZSwiYXpwIjoiNTE2NDY4NzQ1NTI1LTBzanQwaGhzaDc4bzdpcWpqcHY1Z2xscHJlNHVzMGo2LmFwcHMuZ29vZ2xldXNlcmNvbnRlbnQuY29tIiwibmFtZSI6IlNhbmthciBWYXJhZGFyYWphbiIsInBpY3R1cmUiOiJodHRwczovL2xoMy5nb29nbGV1c2VyY29udGVudC5jb20vYS9BR05teXhiN1J2Qlkxc190b1VxdXFBRDFNN0V0WF80TXRmeUEweER6T1l0OD1zOTYtYyIsImdpdmVuX25hbWUiOiJTYW5rYXIiLCJmYW1pbHlfbmFtZSI6IlZhcmFkYXJhamFuIiwiaWF0IjoxNjgwODM1MTk1LCJleHAiOjE2ODA4Mzg3OTUsImp0aSI6IjFhZjRiM2JmNzY3MDQxZDIxZjJjODk2NDQyMDA4ZDZhYTRjNjUxNjAifQ.AJ1oue15fDBake5d4mmOQysiCND84sYcT1RUhNXeb8CgawpRV8JZ5ziVn65J5J64woACPgqLoKIMlDAW1OmcrZb6aHuqdaUzWEu-fGTvddPEuWJo0WyxsJ3ThqWr-zEeT7Z9tc4CATE-7tVVVAMto3dRU1EH-NLNVbwobIzrHiXLGU0-1XfHRtMORlItNrHOAgt8QiQrnioTZl-QKOiQuPFUQln_sWVrz_X8twA6N9mPQ-BLSYKBlwZzn_lhkKjhnkOmqauErlXVN-mKIoIsfjKGZDnQUIForYdzRufguH2-vp274spWqDj2CVbyR-j3-VTvGIw7iYb13bVRho44fA\",\n  \"requestType\": \"GET_VENDORS\",\n  \"payload\": {\n    \"regNo\": \"TN61P9677\"\n  }\n}",
                "form": []
            },
            "tests": []
        },
        {
            "_id": "1ac8faf1-dfbd-4430-9c98-8c18ba05af7d",
            "colId": "84754f06-b1d5-46bd-a04c-c1daff34372b",
            "containerId": "",
            "name": "Dump Table",
            "url": "{{host}}/admin/peformAction",
            "method": "POST",
            "sortNum": 10000,
            "created": "2023-04-07T03:16:43.384Z",
            "modified": "2023-04-07T03:26:35.976Z",
            "headers": [],
            "params": [],
            "body": {
                "type": "json",
                "raw": "{\n  \"googleUserId\": \"106201177605008703346\",\n  \"requestType\": \"DUMP_TABLE\",\n  \"payload\": {\n    \"tableName\": \"cab-vendors\",\n    \"inFull\": false\n  },\n  \"googleIdToken\":\"eyJhbGciOiJSUzI1NiIsImtpZCI6ImFjZGEzNjBmYjM2Y2QxNWZmODNhZjgzZTE3M2Y0N2ZmYzM2ZDExMWMiLCJ0eXAiOiJKV1QifQ.eyJpc3MiOiJodHRwczovL2FjY291bnRzLmdvb2dsZS5jb20iLCJuYmYiOjE2ODA4Mzc1MzYsImF1ZCI6IjUxNjQ2ODc0NTUyNS0wc2p0MGhoc2g3OG83aXFqanB2NWdsbHByZTR1czBqNi5hcHBzLmdvb2dsZXVzZXJjb250ZW50LmNvbSIsInN1YiI6IjEwNjIwMTE3NzYwNTAwODcwMzM0NiIsImVtYWlsIjoidXZzYW5rYXI5NEBnbWFpbC5jb20iLCJlbWFpbF92ZXJpZmllZCI6dHJ1ZSwiYXpwIjoiNTE2NDY4NzQ1NTI1LTBzanQwaGhzaDc4bzdpcWpqcHY1Z2xscHJlNHVzMGo2LmFwcHMuZ29vZ2xldXNlcmNvbnRlbnQuY29tIiwibmFtZSI6IlNhbmthciBWYXJhZGFyYWphbiIsInBpY3R1cmUiOiJodHRwczovL2xoMy5nb29nbGV1c2VyY29udGVudC5jb20vYS9BR05teXhiN1J2Qlkxc190b1VxdXFBRDFNN0V0WF80TXRmeUEweER6T1l0OD1zOTYtYyIsImdpdmVuX25hbWUiOiJTYW5rYXIiLCJmYW1pbHlfbmFtZSI6IlZhcmFkYXJhamFuIiwiaWF0IjoxNjgwODM3ODM2LCJleHAiOjE2ODA4NDE0MzYsImp0aSI6IjY4NWQ0M2QyZWVkNzQ5NWI0OGQ0NDlmMDUwZGQ2NGU4MzJhODMyZmYifQ.S_csAJDp78-GrjcszUeBiwLs99pav-txeynbxgrvumNQyEydyykOSvEnhUUTCbJMX_j36RRS5wb5IvtuMGjBhgWLWlJzIngyztiuL1dPAeXLj1Fm_sdb2nVCucG53iwBbkcQFPMO6k7wNLf4XSeJRDBqcE9nP21xo6jd7gfHcaHAT9cgxq2qc213GkHmcVS-XQz9Z5c7F8S2IkJgv_w2r_JnvgVwCv2heB6fb_Wofp-7DJg5RUA7FDwQHiRqhbFMiUYaxXRE0-MKfnNP-yUoB7_iMjwBh5DKM4ZkGpMuklomvuFqV2tf1Ji_GgH4WOi0beEWOS0xoa_z9RR1bqzXdw\"\n}",
                "form": []
            },
            "tests": []
        },
        {
            "_id": "1742e468-42f4-40a9-af58-52c7a26117d8",
            "colId": "84754f06-b1d5-46bd-a04c-c1daff34372b",
            "containerId": "",
            "name": "GET transactions",
            "url": "{{host}}/admin/peformAction",
            "method": "POST",
            "sortNum": 20000,
            "created": "2023-05-29T05:08:57.238Z",
            "modified": "2023-05-29T05:08:57.238Z",
            "headers": [],
            "params": [],
            "body": {
                "type": "json",
                "raw": "{\n  \"googleUserId\": \"106201177605008703346\",\n  \"requestType\": \"DUMP_TABLE\",\n  \"payload\": {\n    \"tableName\": \"cab-vendors\",\n    \"inFull\": false\n  },\n  \"googleIdToken\":\"eyJhbGciOiJSUzI1NiIsImtpZCI6ImFjZGEzNjBmYjM2Y2QxNWZmODNhZjgzZTE3M2Y0N2ZmYzM2ZDExMWMiLCJ0eXAiOiJKV1QifQ.eyJpc3MiOiJodHRwczovL2FjY291bnRzLmdvb2dsZS5jb20iLCJuYmYiOjE2ODA4Mzc1MzYsImF1ZCI6IjUxNjQ2ODc0NTUyNS0wc2p0MGhoc2g3OG83aXFqanB2NWdsbHByZTR1czBqNi5hcHBzLmdvb2dsZXVzZXJjb250ZW50LmNvbSIsInN1YiI6IjEwNjIwMTE3NzYwNTAwODcwMzM0NiIsImVtYWlsIjoidXZzYW5rYXI5NEBnbWFpbC5jb20iLCJlbWFpbF92ZXJpZmllZCI6dHJ1ZSwiYXpwIjoiNTE2NDY4NzQ1NTI1LTBzanQwaGhzaDc4bzdpcWpqcHY1Z2xscHJlNHVzMGo2LmFwcHMuZ29vZ2xldXNlcmNvbnRlbnQuY29tIiwibmFtZSI6IlNhbmthciBWYXJhZGFyYWphbiIsInBpY3R1cmUiOiJodHRwczovL2xoMy5nb29nbGV1c2VyY29udGVudC5jb20vYS9BR05teXhiN1J2Qlkxc190b1VxdXFBRDFNN0V0WF80TXRmeUEweER6T1l0OD1zOTYtYyIsImdpdmVuX25hbWUiOiJTYW5rYXIiLCJmYW1pbHlfbmFtZSI6IlZhcmFkYXJhamFuIiwiaWF0IjoxNjgwODM3ODM2LCJleHAiOjE2ODA4NDE0MzYsImp0aSI6IjY4NWQ0M2QyZWVkNzQ5NWI0OGQ0NDlmMDUwZGQ2NGU4MzJhODMyZmYifQ.S_csAJDp78-GrjcszUeBiwLs99pav-txeynbxgrvumNQyEydyykOSvEnhUUTCbJMX_j36RRS5wb5IvtuMGjBhgWLWlJzIngyztiuL1dPAeXLj1Fm_sdb2nVCucG53iwBbkcQFPMO6k7wNLf4XSeJRDBqcE9nP21xo6jd7gfHcaHAT9cgxq2qc213GkHmcVS-XQz9Z5c7F8S2IkJgv_w2r_JnvgVwCv2heB6fb_Wofp-7DJg5RUA7FDwQHiRqhbFMiUYaxXRE0-MKfnNP-yUoB7_iMjwBh5DKM4ZkGpMuklomvuFqV2tf1Ji_GgH4WOi0beEWOS0xoa_z9RR1bqzXdw\"\n}",
                "form": []
            },
            "tests": []
        },
        {
            "_id": "01be1db0-6bc3-4f2b-a1db-9c2970bb073f",
            "colId": "84754f06-b1d5-46bd-a04c-c1daff34372b",
            "containerId": "",
            "name": "Send Driver notf alert",
            "url": "https://jv63qxazxunn2pa6dgu4fv7vkm0xcuhc.lambda-url.ap-south-1.on.aws/sendAlerts",
            "method": "POST",
            "sortNum": 30000,
            "created": "2023-05-30T04:39:32.013Z",
            "modified": "2023-05-30T04:42:18.127Z",
            "headers": [],
            "params": [],
            "body": {
                "type": "json",
                "raw": "{}",
                "form": []
            },
            "tests": []
        },
        {
            "_id": "a20c6379-1958-47ef-aced-ac540abd58bb",
            "colId": "84754f06-b1d5-46bd-a04c-c1daff34372b",
            "containerId": "",
            "name": "OTP",
            "url": "{{host}}/otp",
            "method": "POST",
            "sortNum": 40000,
            "created": "2023-06-11T03:49:09.891Z",
            "modified": "2023-06-11T06:16:54.273Z",
            "headers": [],
            "params": [],
            "body": {
                "type": "json",
                "raw": "{\n  \"phoneNumber\": \"2063196406\",\n  \"otpType\": \"PHONE_NO_VERIFICATION\",\n  \"action\": \"GENERATE\"\n}",
                "form": []
            },
            "tests": []
        },
        {
            "_id": "365aade1-45f6-411e-bea7-80d89ec5e84c",
            "colId": "84754f06-b1d5-46bd-a04c-c1daff34372b",
            "containerId": "",
            "name": "POST CabVendor",
            "url": "{{host}}/cab-vendors",
            "method": "POST",
            "sortNum": 50000,
            "created": "2023-07-24T00:28:10.535Z",
            "modified": "2023-07-24T02:33:02.870Z",
            "headers": [],
            "params": [],
            "body": {
                "type": "json",
                "raw": "{\n  \"cabVendorId\": \"1062011776050087033463\",\n  \"vehicles\": {\n    \"TN28P008\": {\n      \"vehicleRegNo\": \"TN28P008\",\n      \"type\": \"SUV\"\n    }\n  },\n  \"drivers\": {\n    \"1234\": {\n      \"name\": \"d\",\n      \"phoneNo\": 123\n    }\n  },\n  \"profile\": {\n    \"name\": \"sankar\",\n    \"phoneNo\": 1234567890,\n    \"email\": \"uvsankar@gmail.com\"\n  }\n}",
                "form": []
            },
            "tests": []
        },
        {
            "_id": "af70956f-f744-471f-aeb7-a7dcbb862ec9",
            "colId": "84754f06-b1d5-46bd-a04c-c1daff34372b",
            "containerId": "",
            "name": "ADMIN UpdateVendor",
            "url": "{{host}}/admin/peformAction",
            "method": "POST",
            "sortNum": 170000,
            "created": "2023-07-24T01:11:20.965Z",
            "modified": "2023-07-24T02:05:03.197Z",
            "headers": [],
            "params": [],
            "body": {
                "type": "json",
                "raw": "{\n  \"googleIdToken\": \"dummy\",\n  \"googleUserId\": \"dummy\",\n  \"requestType\": \"UPDATE_VENDOR\",\n  \"payload\": {\n    \"cabVendorId\": \"test-5884.342306054664\",\n    \"cabVendor\": {\n      \"drivers\": {\n        \"123\": {\n          \"name\": \"driverName\",\n          \"phoneNumber\": \"123\"\n        }\n      },\n      \"profile\": {\n        \"isVerified\": true\n      }\n    }\n  }\n}",
                "form": []
            },
            "tests": []
        }
    ]
}