<svg width="21" height="13" viewBox="0 0 21 13" fill="none" xmlns="http://www.w3.org/2000/svg">
<path fill-rule="evenodd" clip-rule="evenodd" d="M17.4914 0.155518C18.3077 0.155518 19.0906 0.479779 19.6678 1.05697C20.2449 1.63416 20.5692 2.41699 20.5692 3.23326V9.38875C20.5692 10.205 20.2449 10.9879 19.6678 11.565C19.0906 12.1422 18.3077 12.4665 17.4914 12.4665H3.12855C2.31227 12.4665 1.52943 12.1422 0.952238 11.565C0.375045 10.9879 0.0507813 10.205 0.0507812 9.38875V3.23326C0.0507813 2.41699 0.375045 1.63416 0.952238 1.05697C1.52943 0.479779 2.31227 0.155518 3.12855 0.155518H17.4914ZM17.4914 2.20735H3.12855C2.87726 2.20738 2.63473 2.29963 2.44695 2.46661C2.25917 2.63359 2.13921 2.86367 2.10981 3.11323L2.10262 3.23326V9.38875C2.10266 9.64003 2.19491 9.88256 2.36189 10.0703C2.52887 10.2581 2.75896 10.3781 3.00851 10.4075L3.12855 10.4147V8.36283C3.12858 8.11155 3.22083 7.86902 3.38781 7.68124C3.55479 7.49347 3.78488 7.3735 4.03443 7.3441L4.15447 7.33692H16.4655C16.7168 7.33695 16.9593 7.42921 17.1471 7.59618C17.3349 7.76316 17.4549 7.99325 17.4843 8.2428L17.4914 8.36283V10.4147C17.7427 10.4146 17.9853 10.3224 18.173 10.1554C18.3608 9.98842 18.4808 9.75834 18.5102 9.50878L18.5174 9.38875V3.23326C18.5173 2.98198 18.4251 2.73945 18.2581 2.55167C18.0911 2.36389 17.861 2.24393 17.6115 2.21453L17.4914 2.20735ZM15.4396 9.38875H5.18039V10.4147H15.4396V9.38875ZM15.4396 3.23326C15.7117 3.23326 15.9726 3.34135 16.165 3.53374C16.3574 3.72614 16.4655 3.98709 16.4655 4.25918C16.4655 4.53127 16.3574 4.79221 16.165 4.98461C15.9726 5.177 15.7117 5.28509 15.4396 5.28509C15.1675 5.28509 14.9066 5.177 14.7142 4.98461C14.5218 4.79221 14.4137 4.53127 14.4137 4.25918C14.4137 3.98709 14.5218 3.72614 14.7142 3.53374C14.9066 3.34135 15.1675 3.23326 15.4396 3.23326Z" fill="black"/>
</svg>
