<svg width="48" height="48" viewBox="0 0 48 48" fill="none" xmlns="http://www.w3.org/2000/svg">
<circle cx="24" cy="24" r="24" fill="#242424"/>
<path d="M27.5215 13.2948L28.6575 11.3267C28.672 11.3015 28.6812 11.2738 28.6846 11.2451C28.688 11.2165 28.6854 11.1875 28.6771 11.1598C28.6689 11.1321 28.655 11.1062 28.6363 11.0837C28.6176 11.0612 28.5944 11.0424 28.5681 11.0284C28.5419 11.0145 28.513 11.0056 28.4832 11.0024C28.4534 10.9991 28.4232 11.0016 28.3943 11.0095C28.3655 11.0175 28.3386 11.0309 28.3151 11.0488C28.2916 11.0668 28.2721 11.089 28.2575 11.1142L27.1097 13.1028C26.1299 12.6902 25.0716 12.4772 24.0018 12.4772C22.9319 12.4772 21.8737 12.6902 20.8938 13.1028L19.746 11.1142C19.7167 11.063 19.6673 11.025 19.6089 11.0087C19.5504 10.9924 19.4876 10.9991 19.4342 11.0273C19.3809 11.0555 19.3414 11.1028 19.3244 11.159C19.3074 11.2151 19.3144 11.2755 19.3437 11.3267L20.4797 13.2948C19.3988 13.8067 18.4856 14.5945 17.8402 15.5719C17.1949 16.5492 16.8422 17.6783 16.8209 18.8355H31.1827C31.1612 17.6781 30.8081 16.5488 30.1623 15.5714C29.5165 14.5941 28.6028 13.8064 27.5215 13.2948ZM20.6879 16.3117C20.5692 16.3117 20.4532 16.2779 20.3545 16.2145C20.2558 16.1512 20.1789 16.0611 20.1335 15.9558C20.0882 15.8505 20.0764 15.7346 20.0996 15.6228C20.1229 15.511 20.1801 15.4083 20.2641 15.3278C20.3482 15.2473 20.4552 15.1925 20.5716 15.1704C20.6881 15.1483 20.8087 15.1599 20.9183 15.2037C21.0279 15.2474 21.1216 15.3215 21.1873 15.4164C21.2531 15.5112 21.2881 15.6227 21.2879 15.7367C21.2876 15.8893 21.2242 16.0356 21.1117 16.1434C20.9993 16.2512 20.8468 16.3117 20.6879 16.3117ZM27.3168 16.3117C27.1981 16.3117 27.0821 16.2779 26.9834 16.2145C26.8847 16.1512 26.8078 16.0611 26.7624 15.9558C26.717 15.8505 26.7052 15.7346 26.7285 15.6228C26.7517 15.511 26.809 15.4083 26.893 15.3278C26.977 15.2473 27.084 15.1925 27.2005 15.1704C27.3169 15.1483 27.4376 15.1599 27.5472 15.2037C27.6568 15.2474 27.7504 15.3215 27.8162 15.4164C27.882 15.5112 27.917 15.6227 27.9167 15.7367C27.9164 15.8893 27.8531 16.0356 27.7406 16.1434C27.6281 16.2512 27.4757 16.3117 27.3168 16.3117ZM16.8185 29.3759C16.8182 29.5953 16.863 29.8126 16.9503 30.0153C17.0376 30.218 17.1658 30.4022 17.3274 30.5573C17.489 30.7124 17.6809 30.8353 17.892 30.919C18.1032 31.0027 18.3295 31.0456 18.558 31.0451H19.7093V34.4541C19.7093 34.8641 19.879 35.2573 20.1809 35.5472C20.4828 35.8371 20.8923 36 21.3192 36C21.7462 36 22.1557 35.8371 22.4576 35.5472C22.7595 35.2573 22.9291 34.8641 22.9291 34.4541V31.0451H25.0756V34.4541C25.0756 34.8639 25.2452 35.257 25.547 35.5468C25.8488 35.8366 26.2581 35.9994 26.6849 35.9994C27.1117 35.9994 27.5211 35.8366 27.8229 35.5468C28.1247 35.257 28.2942 34.8639 28.2942 34.4541V31.0451H29.4468C29.6749 31.0453 29.9009 31.0022 30.1117 30.9184C30.3225 30.8347 30.5141 30.7118 30.6754 30.5569C30.8367 30.4019 30.9647 30.218 31.0519 30.0155C31.1392 29.8131 31.184 29.5961 31.1838 29.377V19.3809H16.8185V29.3759ZM14.6093 19.115C14.1825 19.1156 13.7733 19.2788 13.4716 19.5687C13.1699 19.8586 13.0003 20.2516 13 20.6615V27.1033C13 27.3062 13.0416 27.5072 13.1225 27.6946C13.2034 27.8821 13.3219 28.0525 13.4714 28.196C13.6208 28.3395 13.7982 28.4533 13.9934 28.531C14.1887 28.6087 14.398 28.6486 14.6093 28.6486C14.8206 28.6486 15.0299 28.6087 15.2251 28.531C15.4204 28.4533 15.5978 28.3395 15.7472 28.196C15.8967 28.0525 16.0152 27.8821 16.0961 27.6946C16.177 27.5072 16.2186 27.3062 16.2186 27.1033V20.6615C16.218 20.2518 16.0482 19.8591 15.7465 19.5694C15.4449 19.2797 15.0359 19.1167 14.6093 19.1161M33.3907 19.1161C32.9639 19.1167 32.5547 19.2799 32.253 19.5698C31.9513 19.8598 31.7817 20.2528 31.7814 20.6626V27.1044C31.7814 27.3073 31.823 27.5083 31.9039 27.6958C31.9848 27.8833 32.1033 28.0536 32.2528 28.1971C32.4022 28.3406 32.5796 28.4545 32.7749 28.5321C32.9701 28.6098 33.1794 28.6498 33.3907 28.6498C33.602 28.6498 33.8113 28.6098 34.0066 28.5321C34.2018 28.4545 34.3792 28.3406 34.5286 28.1971C34.6781 28.0536 34.7966 27.8833 34.8775 27.6958C34.9584 27.5083 35 27.3073 35 27.1044V20.6615C34.9994 20.2518 34.8296 19.8591 34.528 19.5694C34.2263 19.2797 33.8173 19.1167 33.3907 19.1161Z" fill="white"/>
</svg>
