<svg width="11" height="11" viewBox="0 0 11 11" fill="none" xmlns="http://www.w3.org/2000/svg">
<g clip-path="url(#clip0_67_904)">
<path d="M9.35305 7.49219C8.86207 6.96023 8.26625 6.53569 7.60311 6.24532C6.93998 5.95496 6.22391 5.80505 5.49999 5.80505C4.77608 5.80505 4.06 5.95496 3.39687 6.24532C2.73374 6.53569 2.13792 6.96023 1.64694 7.49219C1.57113 7.57601 1.52873 7.68474 1.52777 7.79775V9.63108C1.52938 9.75158 1.57837 9.86659 1.66416 9.95123C1.74994 10.0359 1.8656 10.0833 1.9861 10.0833H9.01388C9.13544 10.0833 9.25202 10.035 9.33797 9.94906C9.42393 9.86311 9.47222 9.74653 9.47222 9.62497V7.79164C9.46978 7.68074 9.42747 7.57444 9.35305 7.49219Z" fill="#D9D9D9"/>
<path d="M5.49997 5.19446C6.68125 5.19446 7.63886 4.23685 7.63886 3.05558C7.63886 1.8743 6.68125 0.916687 5.49997 0.916687C4.3187 0.916687 3.36108 1.8743 3.36108 3.05558C3.36108 4.23685 4.3187 5.19446 5.49997 5.19446Z" fill="#D9D9D9"/>
</g>
<defs>
<clipPath id="clip0_67_904">
<rect width="11" height="11" fill="white"/>
</clipPath>
</defs>
</svg>
