<svg width="8" height="8" viewBox="0 0 8 8" fill="none" xmlns="http://www.w3.org/2000/svg">
<path d="M1.42806 0.245014C1.10137 -0.0816713 0.571699 -0.0816713 0.245014 0.245014C-0.0816713 0.571711 -0.0816713 1.10137 0.245014 1.42805L2.44194 3.62502L0.245036 5.822C-0.081649 6.14858 -0.081649 6.67828 0.245036 7.00498C0.571722 7.33167 1.1014 7.33167 1.42806 7.00498L3.62503 4.80811L5.8219 7.00498C6.14859 7.33167 6.67829 7.33167 7.00499 7.00498C7.33168 6.67828 7.33168 6.14858 7.00499 5.82189L4.80801 3.62502L7.00499 1.42805C7.33168 1.1014 7.33168 0.571732 7.00499 0.245047C6.67829 -0.0816495 6.14859 -0.0816495 5.8219 0.245047L3.62503 2.44193L1.42806 0.245014Z" fill="#FA4065"/>
</svg>
