<svg width="17" height="22" viewBox="0 0 17 22" fill="none" xmlns="http://www.w3.org/2000/svg">
<path d="M0.452026 4.04655C0.452026 2.13946 4.079 0.593597 8.55289 0.593597C13.0268 0.593597 16.6537 2.13946 16.6537 4.04655V5.77237C16.6537 7.67946 13.0268 9.22532 8.55289 9.22532C4.079 9.22532 0.452026 7.67946 0.452026 5.77237V4.04655Z" fill="white"/>
<path d="M0.452026 8.79416V12.6782C0.452026 14.5827 4.079 16.1299 8.55289 16.1299C13.0268 16.1299 16.6537 14.584 16.6537 12.6769V8.79416C16.1066 9.21429 15.5113 9.55802 14.8822 9.81697C13.1823 10.542 10.9429 10.9511 8.55289 10.9511C6.16285 10.9511 3.92469 10.5407 2.22481 9.81697C1.59573 9.55802 1.00036 9.21429 0.453241 8.79416H0.452026Z" fill="white"/>
<path d="M16.6537 15.7001C16.1066 16.1198 15.5112 16.4631 14.8822 16.7216C13.1811 17.4466 10.9429 17.8558 8.55167 17.8558C6.16285 17.8558 3.92348 17.4466 2.2236 16.7216C1.59451 16.4627 0.999145 16.1189 0.452026 15.6988V17.8558C0.452026 19.7628 4.079 21.3087 8.55289 21.3087C13.0268 21.3087 16.6537 19.7628 16.6537 17.8558V15.7001Z" fill="white"/>
</svg>
