<svg width="25" height="24" viewBox="0 0 25 24" fill="none" xmlns="http://www.w3.org/2000/svg">
<path fill-rule="evenodd" clip-rule="evenodd" d="M12.8037 1.25C6.86665 1.25 2.05371 6.06294 2.05371 12C2.05371 17.9371 6.86665 22.75 12.8037 22.75C18.7408 22.75 23.5537 17.9371 23.5537 12C23.5537 6.06294 18.7408 1.25 12.8037 1.25ZM12.8037 20C17.222 20 20.8037 16.4183 20.8037 12C20.8037 7.58172 17.222 4 12.8037 4C8.38543 4 4.80371 7.58172 4.80371 12C4.80371 16.4183 8.38543 20 12.8037 20Z" fill="#356EF3"/>
<path fill-rule="evenodd" clip-rule="evenodd" d="M12.8037 10C15.1377 10 17.3699 10.238 19.4231 10.6718C19.5088 11.1013 19.5537 11.5454 19.5537 12C19.5537 12.9168 19.3709 13.7909 19.0398 14.5879C17.4485 15.3471 16.1508 16.6448 15.3916 18.2361C14.5946 18.5672 13.7205 18.75 12.8037 18.75C11.8869 18.75 11.0128 18.5672 10.2158 18.2361C9.45656 16.6448 8.15886 15.3471 6.56761 14.5879C6.23649 13.7909 6.05371 12.9168 6.05371 12C6.05371 11.5454 6.09865 11.1013 6.18434 10.6718C8.23753 10.238 10.4697 10 12.8037 10ZM12.8037 12.5C11.9753 12.5 11.3037 13.1716 11.3037 14C11.3037 14.8284 11.9753 15.5 12.8037 15.5H12.8127C13.6411 15.5 14.3127 14.8284 14.3127 14C14.3127 13.1716 13.6411 12.5 12.8127 12.5H12.8037Z" fill="#356EF3"/>
</svg>
