<svg width="46" height="22" viewBox="0 0 46 22" fill="none" xmlns="http://www.w3.org/2000/svg">
<path fill-rule="evenodd" clip-rule="evenodd" d="M36.281 15.73L41.6518 10.9395L39.1078 5.98364L36.281 15.73Z" fill="#097939"/>
<path fill-rule="evenodd" clip-rule="evenodd" d="M34.4722 15.73L39.8429 10.9395L37.2989 5.98364L34.4722 15.73Z" fill="#ED752E"/>
<path fill-rule="evenodd" clip-rule="evenodd" d="M8.80567 6.039L6.54442 13.9132L14.572 13.9682L16.777 6.039H18.8122L16.1684 15.257C16.0672 15.609 15.6817 15.895 15.3078 15.895H5.01817C4.39417 15.895 4.02442 15.4183 4.19317 14.8317L6.71467 6.039H8.80567ZM33.6239 5.984H35.659L32.8323 15.895H30.7398L33.6239 5.984ZM19.0387 10.1134L29.2147 10.0584L29.8934 7.96583H19.5472L20.1689 6.03863L31.1939 5.93963C31.8802 5.9334 32.2889 6.45296 32.1082 7.10086L31.0694 10.813C30.8883 11.4605 30.1844 11.9852 29.4982 11.9852H20.3954L19.3222 16.06H17.3422L19.0387 10.1134Z" fill="#747474"/>
</svg>
