<svg width="14" height="14" viewBox="0 0 14 14" fill="none" xmlns="http://www.w3.org/2000/svg">
<path d="M6.41675 6.40491C6.41675 6.2502 6.47821 6.10183 6.5876 5.99243C6.697 5.88304 6.84537 5.82158 7.00008 5.82158C7.15479 5.82158 7.30316 5.88304 7.41256 5.99243C7.52196 6.10183 7.58341 6.2502 7.58341 6.40491V9.90491C7.58341 10.0596 7.52196 10.208 7.41256 10.3174C7.30316 10.4268 7.15479 10.4882 7.00008 10.4882C6.84537 10.4882 6.697 10.4268 6.5876 10.3174C6.47821 10.208 6.41675 10.0596 6.41675 9.90491V6.40491ZM7.00008 3.52966C6.84537 3.52966 6.697 3.59112 6.5876 3.70052C6.47821 3.80991 6.41675 3.95829 6.41675 4.113C6.41675 4.26771 6.47821 4.41608 6.5876 4.52548C6.697 4.63487 6.84537 4.69633 7.00008 4.69633C7.15479 4.69633 7.30316 4.63487 7.41256 4.52548C7.52196 4.41608 7.58341 4.26771 7.58341 4.113C7.58341 3.95829 7.52196 3.80991 7.41256 3.70052C7.30316 3.59112 7.15479 3.52966 7.00008 3.52966Z" fill="#FE4469"/>
<path fill-rule="evenodd" clip-rule="evenodd" d="M7.00008 1.16663C3.77833 1.16663 1.16675 3.77821 1.16675 6.99996C1.16675 10.2217 3.77833 12.8333 7.00008 12.8333C10.2218 12.8333 12.8334 10.2217 12.8334 6.99996C12.8334 3.77821 10.2218 1.16663 7.00008 1.16663ZM2.33341 6.99996C2.33341 8.23764 2.82508 9.42462 3.70025 10.2998C4.57542 11.175 5.7624 11.6666 7.00008 11.6666C8.23776 11.6666 9.42474 11.175 10.2999 10.2998C11.1751 9.42462 11.6667 8.23764 11.6667 6.99996C11.6667 5.76228 11.1751 4.5753 10.2999 3.70013C9.42474 2.82496 8.23776 2.33329 7.00008 2.33329C5.7624 2.33329 4.57542 2.82496 3.70025 3.70013C2.82508 4.5753 2.33341 5.76228 2.33341 6.99996Z" fill="#FE4469"/>
</svg>
