<svg width="37" height="59" viewBox="0 0 37 59" fill="none" xmlns="http://www.w3.org/2000/svg">
<circle cx="18.2707" cy="18.2708" r="18.2708" fill="#EF005B"/>
<path d="M16.9999 34H19.9999V51C19.9999 51.5523 19.5522 52 18.9999 52H17.9999C17.4476 52 16.9999 51.5523 16.9999 51V34Z" fill="#EF005B"/>
<ellipse cx="18.4928" cy="55.4215" rx="5.27824" ry="2.63912" fill="url(#paint0_radial_17_327)" fill-opacity="0.75"/>
<circle cx="17.9999" cy="19" r="7" fill="white"/>
<defs>
<radialGradient id="paint0_radial_17_327" cx="0" cy="0" r="1" gradientUnits="userSpaceOnUse" gradientTransform="translate(18.4928 55.4215) rotate(90) scale(2.63912 5.27824)">
<stop stop-color="#BABABA"/>
<stop offset="1" stop-color="#545454" stop-opacity="0"/>
</radialGradient>
</defs>
</svg>
