<svg width="26" height="27" viewBox="0 0 26 27" fill="none" xmlns="http://www.w3.org/2000/svg">
<g clip-path="url(#clip0_13_8544)">
<g clip-path="url(#clip1_13_8544)">
<g clip-path="url(#clip2_13_8544)">
<path d="M18.8889 18.729C17.5056 18.729 16.1667 18.5068 14.9222 18.0957C14.5389 17.9734 14.1 18.0623 13.7945 18.3679L11.3501 20.8179C8.20005 19.2179 5.62781 16.6457 4.02781 13.5012L6.47224 11.0457C6.77781 10.7401 6.86667 10.3012 6.74448 9.9179C6.33339 8.67347 6.11115 7.33457 6.11115 5.95123C6.11109 5.33451 5.61667 4.84009 5 4.84009H1.11109C0.5 4.84009 0 5.33451 0 5.95118C0 16.3845 8.45557 24.8401 18.8889 24.8401C19.5056 24.8401 20 24.3457 20 23.729V19.8401C20 19.2234 19.5056 18.729 18.8889 18.729Z" fill="#FA4065"/>
</g>
</g>
</g>
<defs>
<clipPath id="clip0_13_8544">
<rect width="20" height="20" fill="white" transform="translate(0 4.84009)"/>
</clipPath>
<clipPath id="clip1_13_8544">
<rect width="20" height="20" fill="white" transform="translate(0 4.84009)"/>
</clipPath>
<clipPath id="clip2_13_8544">
<rect width="20" height="20" fill="white" transform="translate(0 4.84009)"/>
</clipPath>
</defs>
</svg>
