<svg width="24" height="20" viewBox="0 0 24 20" fill="none" xmlns="http://www.w3.org/2000/svg">
<path d="M2 2H22" stroke="black" stroke-width="3" stroke-linecap="round"/>
<path d="M7 10L22 10" stroke="black" stroke-width="3" stroke-linecap="round"/>
<path d="M12 18L22 18" stroke="black" stroke-width="3" stroke-linecap="round"/>
</svg>
