<svg width="5" height="20" viewBox="0 0 5 20" fill="none" xmlns="http://www.w3.org/2000/svg">
<path d="M0.562501 2.03125C0.562501 1.66041 0.676134 1.2979 0.889029 0.989557C1.10192 0.681215 1.40452 0.440891 1.75855 0.298977C2.11258 0.157062 2.50215 0.119931 2.87799 0.192278C3.25383 0.264626 3.59906 0.443202 3.87002 0.705426C4.14098 0.967649 4.32551 1.30174 4.40027 1.66546C4.47503 2.02917 4.43666 2.40617 4.29002 2.74878C4.14337 3.09139 3.89504 3.38423 3.57642 3.59026C3.2578 3.79628 2.8832 3.90625 2.5 3.90625C1.98614 3.90625 1.49333 3.70871 1.12998 3.35708C0.76663 3.00545 0.562501 2.52853 0.562501 2.03125ZM2.5 8.125C2.1168 8.125 1.7422 8.23497 1.42358 8.441C1.10496 8.64702 0.856629 8.93986 0.709984 9.28247C0.563339 9.62508 0.524971 10.0021 0.599729 10.3658C0.674488 10.7295 0.859018 11.0636 1.12998 11.3258C1.40095 11.588 1.74618 11.7666 2.12201 11.839C2.49785 11.9113 2.88742 11.8742 3.24145 11.7323C3.59548 11.5904 3.89808 11.35 4.11097 11.0417C4.32387 10.7334 4.4375 10.3708 4.4375 10C4.4375 9.50272 4.23337 9.02581 3.87002 8.67418C3.50667 8.32255 3.01386 8.125 2.5 8.125ZM2.5 16.0938C2.1168 16.0938 1.7422 16.2037 1.42358 16.4097C1.10496 16.6158 0.856629 16.9086 0.709984 17.2512C0.563339 17.5938 0.524971 17.9708 0.599729 18.3345C0.674488 18.6983 0.859018 19.0324 1.12998 19.2946C1.40095 19.5568 1.74618 19.7354 2.12201 19.8077C2.49785 19.8801 2.88742 19.8429 3.24145 19.701C3.59548 19.5591 3.89808 19.3188 4.11097 19.0104C4.32387 18.7021 4.4375 18.3396 4.4375 17.9688C4.4375 17.4715 4.23337 16.9946 3.87002 16.6429C3.50667 16.2913 3.01386 16.0938 2.5 16.0938Z" fill="black"/>
</svg>
