<svg width="66" height="66" viewBox="0 0 66 66" fill="none" xmlns="http://www.w3.org/2000/svg">
<rect width="66" height="66" rx="12.75" fill="#FF4268" fill-opacity="0.27"/>
<path d="M25.7344 42.375H28.0312V49.4062H25.7344V42.375Z" fill="#FE4066"/>
<path d="M38.3672 37.6875H22.2891C21.3756 37.6866 20.4998 37.3159 19.8539 36.6568C19.2079 35.9977 18.8447 35.104 18.8438 34.1719V21.2812H16.5469V34.1719C16.5487 35.7253 17.1543 37.2146 18.2307 38.313C19.3072 39.4115 20.7667 40.0294 22.2891 40.0312H38.3672C39.2039 40.035 40.0294 40.2275 40.7846 40.5949L33.7734 47.7492L35.3973 49.4062L42.6405 42.0152C43.5814 43.0782 44.1044 44.4583 44.1094 45.8906V49.4062H46.4062V45.8906C46.4038 43.7158 45.5561 41.6307 44.049 40.0929C42.5419 38.555 40.4985 37.69 38.3672 37.6875Z" fill="#FE4066"/>
<path d="M43.2767 18.9832L35.2376 16.6395C35.0312 16.5793 34.8124 16.5793 34.606 16.6395L26.5669 18.9832C26.2808 19.0669 26.0377 19.2606 25.8888 19.5236C25.7399 19.7866 25.6969 20.0983 25.7688 20.393L26.8828 24.9411V27.1407C26.8828 28.2179 27.0907 29.2846 27.4947 30.2799C27.8987 31.2751 28.4909 32.1794 29.2374 32.9412C29.9839 33.7029 30.8701 34.3071 31.8454 34.7194C32.8208 35.1316 33.8661 35.3438 34.9218 35.3438C35.9775 35.3438 37.0229 35.1316 37.9982 34.7194C38.9736 34.3071 39.8598 33.7029 40.6063 32.9412C41.3528 32.1794 41.945 31.2751 42.349 30.2799C42.753 29.2846 42.9609 28.2179 42.9609 27.1407V24.9411L44.0749 20.3942C44.1471 20.0993 44.1043 19.7873 43.9554 19.524C43.8064 19.2608 43.5631 19.0669 43.2767 18.9832ZM34.9218 18.9844L41.577 20.925L40.9167 23.625H36.0703V21.2813H33.7734V23.625H28.9281L28.2666 20.925L34.9218 18.9844ZM34.9218 33C33.3995 32.9982 31.94 32.3803 30.8635 31.2818C29.787 30.1834 29.1815 28.6941 29.1796 27.1407V25.9688H40.664V27.1407C40.6622 28.6941 40.0566 30.1834 38.9802 31.2818C37.9037 32.3803 36.4442 32.9982 34.9218 33Z" fill="#FE4066"/>
</svg>
