<svg width="66" height="66" viewBox="0 0 66 66" fill="none" xmlns="http://www.w3.org/2000/svg">
<rect width="66" height="66" rx="12.75" fill="#FF4268" fill-opacity="0.27"/>
<path d="M13.25 19.0834L15.5233 13.7777C15.6648 13.4477 15.9 13.1665 16.1999 12.969C16.4997 12.7715 16.851 12.6664 17.21 12.6667H25.7918C26.1506 12.6667 26.5014 12.772 26.8009 12.9695C27.1004 13.167 27.3353 13.448 27.4767 13.7777L29.75 19.0834M13.25 19.0834H29.75M13.25 19.0834V25.5M29.75 19.0834V25.5M13.25 25.5V25.9584C13.25 26.323 13.3949 26.6728 13.6527 26.9306C13.9106 27.1885 14.2603 27.3334 14.625 27.3334C14.9897 27.3334 15.3394 27.1885 15.5973 26.9306C15.8551 26.6728 16 26.323 16 25.9584V25.5M13.25 25.5H16M29.75 25.5V25.9584C29.75 26.323 29.6051 26.6728 29.3473 26.9306C29.0894 27.1885 28.7397 27.3334 28.375 27.3334C28.0103 27.3334 27.6606 27.1885 27.4027 26.9306C27.1449 26.6728 27 26.323 27 25.9584V25.5M29.75 25.5H27M27 25.5H16" stroke="#FE4066" stroke-width="1.83333" stroke-linecap="round" stroke-linejoin="round"/>
<path d="M26.5834 39.3054L29.9589 31.4273C30.169 30.9373 30.5183 30.5198 30.9635 30.2265C31.4087 29.9333 31.9303 29.7772 32.4634 29.7777H45.2061C45.7388 29.7777 46.2597 29.934 46.7044 30.2273C47.1491 30.5205 47.498 30.9377 47.7078 31.4273L51.0834 39.3054M26.5834 39.3054H51.0834M26.5834 39.3054V48.8332M51.0834 39.3054V48.8332M26.5834 48.8332V49.5138C26.5834 50.0552 26.7985 50.5746 27.1814 50.9574C27.5643 51.3403 28.0836 51.5554 28.625 51.5554C29.1665 51.5554 29.6858 51.3403 30.0687 50.9574C30.4516 50.5746 30.6667 50.0552 30.6667 49.5138V48.8332M26.5834 48.8332H30.6667M51.0834 48.8332V49.5138C51.0834 50.0552 50.8683 50.5746 50.4854 50.9574C50.1025 51.3403 49.5832 51.5554 49.0417 51.5554C48.5002 51.5554 47.9809 51.3403 47.598 50.9574C47.2151 50.5746 47 50.0552 47 49.5138V48.8332M51.0834 48.8332H47M47 48.8332H30.6667" stroke="#FE4066" stroke-width="2.72222" stroke-linecap="round" stroke-linejoin="round"/>
</svg>
