<svg width="36" height="36" viewBox="0 0 36 36" fill="none" xmlns="http://www.w3.org/2000/svg">
<circle cx="18" cy="18" r="17.25" fill="#EF005B" stroke="white" stroke-width="1.5"/>
<path d="M18 8C15.879 8.00246 13.8457 8.83105 12.3459 10.304C10.8462 11.777 10.0025 13.7741 10 15.8571C9.99747 17.5594 10.5636 19.2156 11.6116 20.5714C11.6116 20.5714 11.8298 20.8536 11.8655 20.8943L18 28L24.1374 20.8907C24.1694 20.8529 24.3884 20.5714 24.3884 20.5714L24.3891 20.5693C25.4366 19.214 26.0025 17.5587 26 15.8571C25.9975 13.7741 25.1538 11.777 23.6541 10.304C22.1543 8.83105 20.121 8.00246 18 8ZM18 18.7143C17.4246 18.7143 16.8622 18.5467 16.3838 18.2328C15.9054 17.9188 15.5325 17.4726 15.3124 16.9505C15.0922 16.4284 15.0346 15.854 15.1468 15.2997C15.2591 14.7455 15.5361 14.2364 15.943 13.8368C16.3498 13.4373 16.8682 13.1651 17.4325 13.0549C17.9968 12.9447 18.5817 13.0012 19.1133 13.2175C19.6448 13.4337 20.0992 13.7999 20.4188 14.2698C20.7385 14.7397 20.9091 15.2921 20.9091 15.8571C20.9081 16.6146 20.6013 17.3408 20.056 17.8764C19.5106 18.412 18.7712 18.7133 18 18.7143Z" fill="white"/>
</svg>
