<svg width="18" height="18" viewBox="0 0 18 18" fill="none" xmlns="http://www.w3.org/2000/svg">
<g clip-path="url(#clip0_42_16646)">
<path fill-rule="evenodd" clip-rule="evenodd" d="M14.0022 4.99878C14.5769 4.99878 15.1281 5.2271 15.5346 5.63351C15.941 6.03991 16.1693 6.59112 16.1693 7.16587V11.5001C16.1693 12.0748 15.941 12.626 15.5346 13.0324C15.1281 13.4388 14.5769 13.6671 14.0022 13.6671H3.88903C3.31428 13.6671 2.76307 13.4388 2.35665 13.0324C1.95024 12.626 1.72192 12.0748 1.72192 11.5001V7.16587C1.72192 6.59112 1.95024 6.03991 2.35665 5.63351C2.76307 5.2271 3.31428 4.99878 3.88903 4.99878H14.0022ZM14.0022 6.44351H3.88903C3.7121 6.44353 3.54133 6.50849 3.40911 6.62606C3.27689 6.74363 3.19242 6.90564 3.17172 7.08135L3.16666 7.16587V11.5001C3.16668 11.677 3.23164 11.8478 3.34921 11.98C3.46679 12.1122 3.62879 12.1967 3.80451 12.2174L3.88903 12.2224V10.7777C3.88905 10.6008 3.95401 10.43 4.07158 10.2978C4.18915 10.1656 4.35116 10.0811 4.52688 10.0604L4.6114 10.0553H13.2798C13.4567 10.0553 13.6275 10.1203 13.7597 10.2379C13.892 10.3554 13.9764 10.5175 13.9971 10.6932L14.0022 10.7777V12.2224C14.1791 12.2224 14.3499 12.1574 14.4821 12.0399C14.6143 11.9223 14.6988 11.7603 14.7195 11.5846L14.7246 11.5001V7.16587C14.7245 6.98894 14.6596 6.81817 14.542 6.68595C14.4244 6.55373 14.2624 6.46926 14.0867 6.44856L14.0022 6.44351ZM12.5574 11.5001H5.33377V12.2224H12.5574V11.5001ZM12.5574 7.16587C12.749 7.16587 12.9328 7.24198 13.0682 7.37744C13.2037 7.51291 13.2798 7.69665 13.2798 7.88823C13.2798 8.07982 13.2037 8.26355 13.0682 8.39902C12.9328 8.53449 12.749 8.6106 12.5574 8.6106C12.3659 8.6106 12.1821 8.53449 12.0467 8.39902C11.9112 8.26355 11.8351 8.07982 11.8351 7.88823C11.8351 7.69665 11.9112 7.51291 12.0467 7.37744C12.1821 7.24198 12.3659 7.16587 12.5574 7.16587Z" fill="#8B9097"/>
</g>
<defs>
<clipPath id="clip0_42_16646">
<rect width="17.3368" height="17.3367" fill="white" transform="translate(0.277832 0.664551)"/>
</clipPath>
</defs>
</svg>
